%YAML 1.1
%TAG !u! tag:unity3d.com,2011:
--- !u!1 &2783301491423849722
GameObject:
  m_ObjectHideFlags: 0
  m_CorrespondingSourceObject: {fileID: 0}
  m_PrefabInstance: {fileID: 0}
  m_PrefabAsset: {fileID: 0}
  serializedVersion: 6
  m_Component:
  - component: {fileID: 4281634105527834520}
  - component: {fileID: 757836487318030355}
  - component: {fileID: 4664832824601840869}
  m_Layer: 0
  m_Name: Layer1
  m_TagString: Untagged
  m_Icon: {fileID: 0}
  m_NavMeshLayer: 0
  m_StaticEditorFlags: 0
  m_IsActive: 1
--- !u!4 &4281634105527834520
Transform:
  m_ObjectHideFlags: 0
  m_CorrespondingSourceObject: {fileID: 0}
  m_PrefabInstance: {fileID: 0}
  m_PrefabAsset: {fileID: 0}
  m_GameObject: {fileID: 2783301491423849722}
  m_LocalRotation: {x: -0, y: -0, z: -0, w: 1}
  m_LocalPosition: {x: 0, y: 0, z: 0}
  m_LocalScale: {x: 1, y: 1, z: 1}
  m_Children: []
  m_Father: {fileID: 5385230471054113449}
  m_RootOrder: 0
  m_LocalEulerAnglesHint: {x: 0, y: 0, z: 0}
--- !u!1839735485 &757836487318030355
Tilemap:
  m_ObjectHideFlags: 0
  m_CorrespondingSourceObject: {fileID: 0}
  m_PrefabInstance: {fileID: 0}
  m_PrefabAsset: {fileID: 0}
  m_GameObject: {fileID: 2783301491423849722}
  m_Enabled: 1
  m_Tiles:
  - first: {x: 0, y: -14, z: 0}
    second:
      serializedVersion: 2
      m_TileIndex: 170
      m_TileSpriteIndex: 170
      m_TileMatrixIndex: 0
      m_TileColorIndex: 0
      m_TileObjectToInstantiateIndex: 65535
      dummyAlignment: 0
      m_AllTileFlags: 1073741825
  - first: {x: 1, y: -14, z: 0}
    second:
      serializedVersion: 2
      m_TileIndex: 171
      m_TileSpriteIndex: 171
      m_TileMatrixIndex: 0
      m_TileColorIndex: 0
      m_TileObjectToInstantiateIndex: 65535
      dummyAlignment: 0
      m_AllTileFlags: 1073741825
  - first: {x: 2, y: -14, z: 0}
    second:
      serializedVersion: 2
      m_TileIndex: 172
      m_TileSpriteIndex: 172
      m_TileMatrixIndex: 0
      m_TileColorIndex: 0
      m_TileObjectToInstantiateIndex: 65535
      dummyAlignment: 0
      m_AllTileFlags: 1073741825
  - first: {x: 3, y: -14, z: 0}
    second:
      serializedVersion: 2
      m_TileIndex: 173
      m_TileSpriteIndex: 173
      m_TileMatrixIndex: 0
      m_TileColorIndex: 0
      m_TileObjectToInstantiateIndex: 65535
      dummyAlignment: 0
      m_AllTileFlags: 1073741825
  - first: {x: 4, y: -14, z: 0}
    second:
      serializedVersion: 2
      m_TileIndex: 174
      m_TileSpriteIndex: 174
      m_TileMatrixIndex: 0
      m_TileColorIndex: 0
      m_TileObjectToInstantiateIndex: 65535
      dummyAlignment: 0
      m_AllTileFlags: 1073741825
  - first: {x: 5, y: -14, z: 0}
    second:
      serializedVersion: 2
      m_TileIndex: 175
      m_TileSpriteIndex: 175
      m_TileMatrixIndex: 0
      m_TileColorIndex: 0
      m_TileObjectToInstantiateIndex: 65535
      dummyAlignment: 0
      m_AllTileFlags: 1073741825
  - first: {x: 6, y: -14, z: 0}
    second:
      serializedVersion: 2
      m_TileIndex: 176
      m_TileSpriteIndex: 176
      m_TileMatrixIndex: 0
      m_TileColorIndex: 0
      m_TileObjectToInstantiateIndex: 65535
      dummyAlignment: 0
      m_AllTileFlags: 1073741825
  - first: {x: 0, y: -13, z: 0}
    second:
      serializedVersion: 2
      m_TileIndex: 160
      m_TileSpriteIndex: 160
      m_TileMatrixIndex: 0
      m_TileColorIndex: 0
      m_TileObjectToInstantiateIndex: 65535
      dummyAlignment: 0
      m_AllTileFlags: 1073741825
  - first: {x: 1, y: -13, z: 0}
    second:
      serializedVersion: 2
      m_TileIndex: 161
      m_TileSpriteIndex: 161
      m_TileMatrixIndex: 0
      m_TileColorIndex: 0
      m_TileObjectToInstantiateIndex: 65535
      dummyAlignment: 0
      m_AllTileFlags: 1073741825
  - first: {x: 2, y: -13, z: 0}
    second:
      serializedVersion: 2
      m_TileIndex: 162
      m_TileSpriteIndex: 162
      m_TileMatrixIndex: 0
      m_TileColorIndex: 0
      m_TileObjectToInstantiateIndex: 65535
      dummyAlignment: 0
      m_AllTileFlags: 1073741825
  - first: {x: 3, y: -13, z: 0}
    second:
      serializedVersion: 2
      m_TileIndex: 163
      m_TileSpriteIndex: 163
      m_TileMatrixIndex: 0
      m_TileColorIndex: 0
      m_TileObjectToInstantiateIndex: 65535
      dummyAlignment: 0
      m_AllTileFlags: 1073741825
  - first: {x: 4, y: -13, z: 0}
    second:
      serializedVersion: 2
      m_TileIndex: 164
      m_TileSpriteIndex: 164
      m_TileMatrixIndex: 0
      m_TileColorIndex: 0
      m_TileObjectToInstantiateIndex: 65535
      dummyAlignment: 0
      m_AllTileFlags: 1073741825
  - first: {x: 5, y: -13, z: 0}
    second:
      serializedVersion: 2
      m_TileIndex: 165
      m_TileSpriteIndex: 165
      m_TileMatrixIndex: 0
      m_TileColorIndex: 0
      m_TileObjectToInstantiateIndex: 65535
      dummyAlignment: 0
      m_AllTileFlags: 1073741825
  - first: {x: 6, y: -13, z: 0}
    second:
      serializedVersion: 2
      m_TileIndex: 166
      m_TileSpriteIndex: 166
      m_TileMatrixIndex: 0
      m_TileColorIndex: 0
      m_TileObjectToInstantiateIndex: 65535
      dummyAlignment: 0
      m_AllTileFlags: 1073741825
  - first: {x: 13, y: -13, z: 0}
    second:
      serializedVersion: 2
      m_TileIndex: 167
      m_TileSpriteIndex: 167
      m_TileMatrixIndex: 0
      m_TileColorIndex: 0
      m_TileObjectToInstantiateIndex: 65535
      dummyAlignment: 0
      m_AllTileFlags: 1073741825
  - first: {x: 14, y: -13, z: 0}
    second:
      serializedVersion: 2
      m_TileIndex: 168
      m_TileSpriteIndex: 168
      m_TileMatrixIndex: 0
      m_TileColorIndex: 0
      m_TileObjectToInstantiateIndex: 65535
      dummyAlignment: 0
      m_AllTileFlags: 1073741825
  - first: {x: 15, y: -13, z: 0}
    second:
      serializedVersion: 2
      m_TileIndex: 169
      m_TileSpriteIndex: 169
      m_TileMatrixIndex: 0
      m_TileColorIndex: 0
      m_TileObjectToInstantiateIndex: 65535
      dummyAlignment: 0
      m_AllTileFlags: 1073741825
  - first: {x: 10, y: -12, z: 0}
    second:
      serializedVersion: 2
      m_TileIndex: 151
      m_TileSpriteIndex: 151
      m_TileMatrixIndex: 0
      m_TileColorIndex: 0
      m_TileObjectToInstantiateIndex: 65535
      dummyAlignment: 0
      m_AllTileFlags: 1073741825
  - first: {x: 11, y: -12, z: 0}
    second:
      serializedVersion: 2
      m_TileIndex: 152
      m_TileSpriteIndex: 152
      m_TileMatrixIndex: 0
      m_TileColorIndex: 0
      m_TileObjectToInstantiateIndex: 65535
      dummyAlignment: 0
      m_AllTileFlags: 1073741825
  - first: {x: 12, y: -12, z: 0}
    second:
      serializedVersion: 2
      m_TileIndex: 153
      m_TileSpriteIndex: 153
      m_TileMatrixIndex: 0
      m_TileColorIndex: 0
      m_TileObjectToInstantiateIndex: 65535
      dummyAlignment: 0
      m_AllTileFlags: 1073741825
  - first: {x: 13, y: -12, z: 0}
    second:
      serializedVersion: 2
      m_TileIndex: 154
      m_TileSpriteIndex: 154
      m_TileMatrixIndex: 0
      m_TileColorIndex: 0
      m_TileObjectToInstantiateIndex: 65535
      dummyAlignment: 0
      m_AllTileFlags: 1073741825
  - first: {x: 14, y: -12, z: 0}
    second:
      serializedVersion: 2
      m_TileIndex: 155
      m_TileSpriteIndex: 155
      m_TileMatrixIndex: 0
      m_TileColorIndex: 0
      m_TileObjectToInstantiateIndex: 65535
      dummyAlignment: 0
      m_AllTileFlags: 1073741825
  - first: {x: 15, y: -12, z: 0}
    second:
      serializedVersion: 2
      m_TileIndex: 156
      m_TileSpriteIndex: 156
      m_TileMatrixIndex: 0
      m_TileColorIndex: 0
      m_TileObjectToInstantiateIndex: 65535
      dummyAlignment: 0
      m_AllTileFlags: 1073741825
  - first: {x: 16, y: -12, z: 0}
    second:
      serializedVersion: 2
      m_TileIndex: 157
      m_TileSpriteIndex: 157
      m_TileMatrixIndex: 0
      m_TileColorIndex: 0
      m_TileObjectToInstantiateIndex: 65535
      dummyAlignment: 0
      m_AllTileFlags: 1073741825
  - first: {x: 17, y: -12, z: 0}
    second:
      serializedVersion: 2
      m_TileIndex: 158
      m_TileSpriteIndex: 158
      m_TileMatrixIndex: 0
      m_TileColorIndex: 0
      m_TileObjectToInstantiateIndex: 65535
      dummyAlignment: 0
      m_AllTileFlags: 1073741825
  - first: {x: 18, y: -12, z: 0}
    second:
      serializedVersion: 2
      m_TileIndex: 159
      m_TileSpriteIndex: 159
      m_TileMatrixIndex: 0
      m_TileColorIndex: 0
      m_TileObjectToInstantiateIndex: 65535
      dummyAlignment: 0
      m_AllTileFlags: 1073741825
  - first: {x: 3, y: -11, z: 0}
    second:
      serializedVersion: 2
      m_TileIndex: 140
      m_TileSpriteIndex: 140
      m_TileMatrixIndex: 0
      m_TileColorIndex: 0
      m_TileObjectToInstantiateIndex: 65535
      dummyAlignment: 0
      m_AllTileFlags: 1073741825
  - first: {x: 4, y: -11, z: 0}
    second:
      serializedVersion: 2
      m_TileIndex: 141
      m_TileSpriteIndex: 141
      m_TileMatrixIndex: 0
      m_TileColorIndex: 0
      m_TileObjectToInstantiateIndex: 65535
      dummyAlignment: 0
      m_AllTileFlags: 1073741825
  - first: {x: 5, y: -11, z: 0}
    second:
      serializedVersion: 2
      m_TileIndex: 142
      m_TileSpriteIndex: 142
      m_TileMatrixIndex: 0
      m_TileColorIndex: 0
      m_TileObjectToInstantiateIndex: 65535
      dummyAlignment: 0
      m_AllTileFlags: 1073741825
  - first: {x: 10, y: -11, z: 0}
    second:
      serializedVersion: 2
      m_TileIndex: 143
      m_TileSpriteIndex: 143
      m_TileMatrixIndex: 0
      m_TileColorIndex: 0
      m_TileObjectToInstantiateIndex: 65535
      dummyAlignment: 0
      m_AllTileFlags: 1073741825
  - first: {x: 11, y: -11, z: 0}
    second:
      serializedVersion: 2
      m_TileIndex: 144
      m_TileSpriteIndex: 144
      m_TileMatrixIndex: 0
      m_TileColorIndex: 0
      m_TileObjectToInstantiateIndex: 65535
      dummyAlignment: 0
      m_AllTileFlags: 1073741825
  - first: {x: 12, y: -11, z: 0}
    second:
      serializedVersion: 2
      m_TileIndex: 145
      m_TileSpriteIndex: 145
      m_TileMatrixIndex: 0
      m_TileColorIndex: 0
      m_TileObjectToInstantiateIndex: 65535
      dummyAlignment: 0
      m_AllTileFlags: 1073741825
  - first: {x: 13, y: -11, z: 0}
    second:
      serializedVersion: 2
      m_TileIndex: 146
      m_TileSpriteIndex: 146
      m_TileMatrixIndex: 0
      m_TileColorIndex: 0
      m_TileObjectToInstantiateIndex: 65535
      dummyAlignment: 0
      m_AllTileFlags: 1073741825
  - first: {x: 15, y: -11, z: 0}
    second:
      serializedVersion: 2
      m_TileIndex: 147
      m_TileSpriteIndex: 147
      m_TileMatrixIndex: 0
      m_TileColorIndex: 0
      m_TileObjectToInstantiateIndex: 65535
      dummyAlignment: 0
      m_AllTileFlags: 1073741825
  - first: {x: 16, y: -11, z: 0}
    second:
      serializedVersion: 2
      m_TileIndex: 148
      m_TileSpriteIndex: 148
      m_TileMatrixIndex: 0
      m_TileColorIndex: 0
      m_TileObjectToInstantiateIndex: 65535
      dummyAlignment: 0
      m_AllTileFlags: 1073741825
  - first: {x: 17, y: -11, z: 0}
    second:
      serializedVersion: 2
      m_TileIndex: 149
      m_TileSpriteIndex: 149
      m_TileMatrixIndex: 0
      m_TileColorIndex: 0
      m_TileObjectToInstantiateIndex: 65535
      dummyAlignment: 0
      m_AllTileFlags: 1073741825
  - first: {x: 18, y: -11, z: 0}
    second:
      serializedVersion: 2
      m_TileIndex: 150
      m_TileSpriteIndex: 150
      m_TileMatrixIndex: 0
      m_TileColorIndex: 0
      m_TileObjectToInstantiateIndex: 65535
      dummyAlignment: 0
      m_AllTileFlags: 1073741825
  - first: {x: 0, y: -10, z: 0}
    second:
      serializedVersion: 2
      m_TileIndex: 127
      m_TileSpriteIndex: 127
      m_TileMatrixIndex: 0
      m_TileColorIndex: 0
      m_TileObjectToInstantiateIndex: 65535
      dummyAlignment: 0
      m_AllTileFlags: 1073741825
  - first: {x: 1, y: -10, z: 0}
    second:
      serializedVersion: 2
      m_TileIndex: 128
      m_TileSpriteIndex: 128
      m_TileMatrixIndex: 0
      m_TileColorIndex: 0
      m_TileObjectToInstantiateIndex: 65535
      dummyAlignment: 0
      m_AllTileFlags: 1073741825
  - first: {x: 2, y: -10, z: 0}
    second:
      serializedVersion: 2
      m_TileIndex: 129
      m_TileSpriteIndex: 129
      m_TileMatrixIndex: 0
      m_TileColorIndex: 0
      m_TileObjectToInstantiateIndex: 65535
      dummyAlignment: 0
      m_AllTileFlags: 1073741825
  - first: {x: 3, y: -10, z: 0}
    second:
      serializedVersion: 2
      m_TileIndex: 130
      m_TileSpriteIndex: 130
      m_TileMatrixIndex: 0
      m_TileColorIndex: 0
      m_TileObjectToInstantiateIndex: 65535
      dummyAlignment: 0
      m_AllTileFlags: 1073741825
  - first: {x: 4, y: -10, z: 0}
    second:
      serializedVersion: 2
      m_TileIndex: 131
      m_TileSpriteIndex: 131
      m_TileMatrixIndex: 0
      m_TileColorIndex: 0
      m_TileObjectToInstantiateIndex: 65535
      dummyAlignment: 0
      m_AllTileFlags: 1073741825
  - first: {x: 5, y: -10, z: 0}
    second:
      serializedVersion: 2
      m_TileIndex: 132
      m_TileSpriteIndex: 132
      m_TileMatrixIndex: 0
      m_TileColorIndex: 0
      m_TileObjectToInstantiateIndex: 65535
      dummyAlignment: 0
      m_AllTileFlags: 1073741825
  - first: {x: 6, y: -10, z: 0}
    second:
      serializedVersion: 2
      m_TileIndex: 133
      m_TileSpriteIndex: 133
      m_TileMatrixIndex: 0
      m_TileColorIndex: 0
      m_TileObjectToInstantiateIndex: 65535
      dummyAlignment: 0
      m_AllTileFlags: 1073741825
  - first: {x: 7, y: -10, z: 0}
    second:
      serializedVersion: 2
      m_TileIndex: 134
      m_TileSpriteIndex: 134
      m_TileMatrixIndex: 0
      m_TileColorIndex: 0
      m_TileObjectToInstantiateIndex: 65535
      dummyAlignment: 0
      m_AllTileFlags: 1073741825
  - first: {x: 8, y: -10, z: 0}
    second:
      serializedVersion: 2
      m_TileIndex: 135
      m_TileSpriteIndex: 135
      m_TileMatrixIndex: 0
      m_TileColorIndex: 0
      m_TileObjectToInstantiateIndex: 65535
      dummyAlignment: 0
      m_AllTileFlags: 1073741825
  - first: {x: 12, y: -10, z: 0}
    second:
      serializedVersion: 2
      m_TileIndex: 136
      m_TileSpriteIndex: 136
      m_TileMatrixIndex: 0
      m_TileColorIndex: 0
      m_TileObjectToInstantiateIndex: 65535
      dummyAlignment: 0
      m_AllTileFlags: 1073741825
  - first: {x: 13, y: -10, z: 0}
    second:
      serializedVersion: 2
      m_TileIndex: 137
      m_TileSpriteIndex: 137
      m_TileMatrixIndex: 0
      m_TileColorIndex: 0
      m_TileObjectToInstantiateIndex: 65535
      dummyAlignment: 0
      m_AllTileFlags: 1073741825
  - first: {x: 15, y: -10, z: 0}
    second:
      serializedVersion: 2
      m_TileIndex: 138
      m_TileSpriteIndex: 138
      m_TileMatrixIndex: 0
      m_TileColorIndex: 0
      m_TileObjectToInstantiateIndex: 65535
      dummyAlignment: 0
      m_AllTileFlags: 1073741825
  - first: {x: 16, y: -10, z: 0}
    second:
      serializedVersion: 2
      m_TileIndex: 139
      m_TileSpriteIndex: 139
      m_TileMatrixIndex: 0
      m_TileColorIndex: 0
      m_TileObjectToInstantiateIndex: 65535
      dummyAlignment: 0
      m_AllTileFlags: 1073741825
  - first: {x: 0, y: -9, z: 0}
    second:
      serializedVersion: 2
      m_TileIndex: 111
      m_TileSpriteIndex: 111
      m_TileMatrixIndex: 0
      m_TileColorIndex: 0
      m_TileObjectToInstantiateIndex: 65535
      dummyAlignment: 0
      m_AllTileFlags: 1073741825
  - first: {x: 1, y: -9, z: 0}
    second:
      serializedVersion: 2
      m_TileIndex: 112
      m_TileSpriteIndex: 112
      m_TileMatrixIndex: 0
      m_TileColorIndex: 0
      m_TileObjectToInstantiateIndex: 65535
      dummyAlignment: 0
      m_AllTileFlags: 1073741825
  - first: {x: 2, y: -9, z: 0}
    second:
      serializedVersion: 2
      m_TileIndex: 113
      m_TileSpriteIndex: 113
      m_TileMatrixIndex: 0
      m_TileColorIndex: 0
      m_TileObjectToInstantiateIndex: 65535
      dummyAlignment: 0
      m_AllTileFlags: 1073741825
  - first: {x: 3, y: -9, z: 0}
    second:
      serializedVersion: 2
      m_TileIndex: 114
      m_TileSpriteIndex: 114
      m_TileMatrixIndex: 0
      m_TileColorIndex: 0
      m_TileObjectToInstantiateIndex: 65535
      dummyAlignment: 0
      m_AllTileFlags: 1073741825
  - first: {x: 5, y: -9, z: 0}
    second:
      serializedVersion: 2
      m_TileIndex: 115
      m_TileSpriteIndex: 115
      m_TileMatrixIndex: 0
      m_TileColorIndex: 0
      m_TileObjectToInstantiateIndex: 65535
      dummyAlignment: 0
      m_AllTileFlags: 1073741825
  - first: {x: 6, y: -9, z: 0}
    second:
      serializedVersion: 2
      m_TileIndex: 116
      m_TileSpriteIndex: 116
      m_TileMatrixIndex: 0
      m_TileColorIndex: 0
      m_TileObjectToInstantiateIndex: 65535
      dummyAlignment: 0
      m_AllTileFlags: 1073741825
  - first: {x: 7, y: -9, z: 0}
    second:
      serializedVersion: 2
      m_TileIndex: 117
      m_TileSpriteIndex: 117
      m_TileMatrixIndex: 0
      m_TileColorIndex: 0
      m_TileObjectToInstantiateIndex: 65535
      dummyAlignment: 0
      m_AllTileFlags: 1073741825
  - first: {x: 8, y: -9, z: 0}
    second:
      serializedVersion: 2
      m_TileIndex: 118
      m_TileSpriteIndex: 118
      m_TileMatrixIndex: 0
      m_TileColorIndex: 0
      m_TileObjectToInstantiateIndex: 65535
      dummyAlignment: 0
      m_AllTileFlags: 1073741825
  - first: {x: 10, y: -9, z: 0}
    second:
      serializedVersion: 2
      m_TileIndex: 119
      m_TileSpriteIndex: 119
      m_TileMatrixIndex: 0
      m_TileColorIndex: 0
      m_TileObjectToInstantiateIndex: 65535
      dummyAlignment: 0
      m_AllTileFlags: 1073741825
  - first: {x: 11, y: -9, z: 0}
    second:
      serializedVersion: 2
      m_TileIndex: 120
      m_TileSpriteIndex: 120
      m_TileMatrixIndex: 0
      m_TileColorIndex: 0
      m_TileObjectToInstantiateIndex: 65535
      dummyAlignment: 0
      m_AllTileFlags: 1073741825
  - first: {x: 12, y: -9, z: 0}
    second:
      serializedVersion: 2
      m_TileIndex: 121
      m_TileSpriteIndex: 121
      m_TileMatrixIndex: 0
      m_TileColorIndex: 0
      m_TileObjectToInstantiateIndex: 65535
      dummyAlignment: 0
      m_AllTileFlags: 1073741825
  - first: {x: 13, y: -9, z: 0}
    second:
      serializedVersion: 2
      m_TileIndex: 122
      m_TileSpriteIndex: 122
      m_TileMatrixIndex: 0
      m_TileColorIndex: 0
      m_TileObjectToInstantiateIndex: 65535
      dummyAlignment: 0
      m_AllTileFlags: 1073741825
  - first: {x: 15, y: -9, z: 0}
    second:
      serializedVersion: 2
      m_TileIndex: 123
      m_TileSpriteIndex: 123
      m_TileMatrixIndex: 0
      m_TileColorIndex: 0
      m_TileObjectToInstantiateIndex: 65535
      dummyAlignment: 0
      m_AllTileFlags: 1073741825
  - first: {x: 16, y: -9, z: 0}
    second:
      serializedVersion: 2
      m_TileIndex: 124
      m_TileSpriteIndex: 124
      m_TileMatrixIndex: 0
      m_TileColorIndex: 0
      m_TileObjectToInstantiateIndex: 65535
      dummyAlignment: 0
      m_AllTileFlags: 1073741825
  - first: {x: 17, y: -9, z: 0}
    second:
      serializedVersion: 2
      m_TileIndex: 125
      m_TileSpriteIndex: 125
      m_TileMatrixIndex: 0
      m_TileColorIndex: 0
      m_TileObjectToInstantiateIndex: 65535
      dummyAlignment: 0
      m_AllTileFlags: 1073741825
  - first: {x: 18, y: -9, z: 0}
    second:
      serializedVersion: 2
      m_TileIndex: 126
      m_TileSpriteIndex: 126
      m_TileMatrixIndex: 0
      m_TileColorIndex: 0
      m_TileObjectToInstantiateIndex: 65535
      dummyAlignment: 0
      m_AllTileFlags: 1073741825
  - first: {x: 2, y: -8, z: 0}
    second:
      serializedVersion: 2
      m_TileIndex: 99
      m_TileSpriteIndex: 99
      m_TileMatrixIndex: 0
      m_TileColorIndex: 0
      m_TileObjectToInstantiateIndex: 65535
      dummyAlignment: 0
      m_AllTileFlags: 1073741825
  - first: {x: 3, y: -8, z: 0}
    second:
      serializedVersion: 2
      m_TileIndex: 100
      m_TileSpriteIndex: 100
      m_TileMatrixIndex: 0
      m_TileColorIndex: 0
      m_TileObjectToInstantiateIndex: 65535
      dummyAlignment: 0
      m_AllTileFlags: 1073741825
  - first: {x: 5, y: -8, z: 0}
    second:
      serializedVersion: 2
      m_TileIndex: 101
      m_TileSpriteIndex: 101
      m_TileMatrixIndex: 0
      m_TileColorIndex: 0
      m_TileObjectToInstantiateIndex: 65535
      dummyAlignment: 0
      m_AllTileFlags: 1073741825
  - first: {x: 6, y: -8, z: 0}
    second:
      serializedVersion: 2
      m_TileIndex: 102
      m_TileSpriteIndex: 102
      m_TileMatrixIndex: 0
      m_TileColorIndex: 0
      m_TileObjectToInstantiateIndex: 65535
      dummyAlignment: 0
      m_AllTileFlags: 1073741825
  - first: {x: 10, y: -8, z: 0}
    second:
      serializedVersion: 2
      m_TileIndex: 103
      m_TileSpriteIndex: 103
      m_TileMatrixIndex: 0
      m_TileColorIndex: 0
      m_TileObjectToInstantiateIndex: 65535
      dummyAlignment: 0
      m_AllTileFlags: 1073741825
  - first: {x: 11, y: -8, z: 0}
    second:
      serializedVersion: 2
      m_TileIndex: 104
      m_TileSpriteIndex: 104
      m_TileMatrixIndex: 0
      m_TileColorIndex: 0
      m_TileObjectToInstantiateIndex: 65535
      dummyAlignment: 0
      m_AllTileFlags: 1073741825
  - first: {x: 12, y: -8, z: 0}
    second:
      serializedVersion: 2
      m_TileIndex: 105
      m_TileSpriteIndex: 105
      m_TileMatrixIndex: 0
      m_TileColorIndex: 0
      m_TileObjectToInstantiateIndex: 65535
      dummyAlignment: 0
      m_AllTileFlags: 1073741825
  - first: {x: 13, y: -8, z: 0}
    second:
      serializedVersion: 2
      m_TileIndex: 106
      m_TileSpriteIndex: 106
      m_TileMatrixIndex: 0
      m_TileColorIndex: 0
      m_TileObjectToInstantiateIndex: 65535
      dummyAlignment: 0
      m_AllTileFlags: 1073741825
  - first: {x: 15, y: -8, z: 0}
    second:
      serializedVersion: 2
      m_TileIndex: 107
      m_TileSpriteIndex: 107
      m_TileMatrixIndex: 0
      m_TileColorIndex: 0
      m_TileObjectToInstantiateIndex: 65535
      dummyAlignment: 0
      m_AllTileFlags: 1073741825
  - first: {x: 16, y: -8, z: 0}
    second:
      serializedVersion: 2
      m_TileIndex: 108
      m_TileSpriteIndex: 108
      m_TileMatrixIndex: 0
      m_TileColorIndex: 0
      m_TileObjectToInstantiateIndex: 65535
      dummyAlignment: 0
      m_AllTileFlags: 1073741825
  - first: {x: 17, y: -8, z: 0}
    second:
      serializedVersion: 2
      m_TileIndex: 109
      m_TileSpriteIndex: 109
      m_TileMatrixIndex: 0
      m_TileColorIndex: 0
      m_TileObjectToInstantiateIndex: 65535
      dummyAlignment: 0
      m_AllTileFlags: 1073741825
  - first: {x: 18, y: -8, z: 0}
    second:
      serializedVersion: 2
      m_TileIndex: 110
      m_TileSpriteIndex: 110
      m_TileMatrixIndex: 0
      m_TileColorIndex: 0
      m_TileObjectToInstantiateIndex: 65535
      dummyAlignment: 0
      m_AllTileFlags: 1073741825
  - first: {x: 0, y: -7, z: 0}
    second:
      serializedVersion: 2
      m_TileIndex: 87
      m_TileSpriteIndex: 87
      m_TileMatrixIndex: 0
      m_TileColorIndex: 0
      m_TileObjectToInstantiateIndex: 65535
      dummyAlignment: 0
      m_AllTileFlags: 1073741825
  - first: {x: 1, y: -7, z: 0}
    second:
      serializedVersion: 2
      m_TileIndex: 88
      m_TileSpriteIndex: 88
      m_TileMatrixIndex: 0
      m_TileColorIndex: 0
      m_TileObjectToInstantiateIndex: 65535
      dummyAlignment: 0
      m_AllTileFlags: 1073741825
  - first: {x: 2, y: -7, z: 0}
    second:
      serializedVersion: 2
      m_TileIndex: 89
      m_TileSpriteIndex: 89
      m_TileMatrixIndex: 0
      m_TileColorIndex: 0
      m_TileObjectToInstantiateIndex: 65535
      dummyAlignment: 0
      m_AllTileFlags: 1073741825
  - first: {x: 3, y: -7, z: 0}
    second:
      serializedVersion: 2
      m_TileIndex: 90
      m_TileSpriteIndex: 90
      m_TileMatrixIndex: 0
      m_TileColorIndex: 0
      m_TileObjectToInstantiateIndex: 65535
      dummyAlignment: 0
      m_AllTileFlags: 1073741825
  - first: {x: 5, y: -7, z: 0}
    second:
      serializedVersion: 2
      m_TileIndex: 91
      m_TileSpriteIndex: 91
      m_TileMatrixIndex: 0
      m_TileColorIndex: 0
      m_TileObjectToInstantiateIndex: 65535
      dummyAlignment: 0
      m_AllTileFlags: 1073741825
  - first: {x: 6, y: -7, z: 0}
    second:
      serializedVersion: 2
      m_TileIndex: 92
      m_TileSpriteIndex: 92
      m_TileMatrixIndex: 0
      m_TileColorIndex: 0
      m_TileObjectToInstantiateIndex: 65535
      dummyAlignment: 0
      m_AllTileFlags: 1073741825
  - first: {x: 7, y: -7, z: 0}
    second:
      serializedVersion: 2
      m_TileIndex: 93
      m_TileSpriteIndex: 93
      m_TileMatrixIndex: 0
      m_TileColorIndex: 0
      m_TileObjectToInstantiateIndex: 65535
      dummyAlignment: 0
      m_AllTileFlags: 1073741825
  - first: {x: 8, y: -7, z: 0}
    second:
      serializedVersion: 2
      m_TileIndex: 94
      m_TileSpriteIndex: 94
      m_TileMatrixIndex: 0
      m_TileColorIndex: 0
      m_TileObjectToInstantiateIndex: 65535
      dummyAlignment: 0
      m_AllTileFlags: 1073741825
  - first: {x: 10, y: -7, z: 0}
    second:
      serializedVersion: 2
      m_TileIndex: 95
      m_TileSpriteIndex: 95
      m_TileMatrixIndex: 0
      m_TileColorIndex: 0
      m_TileObjectToInstantiateIndex: 65535
      dummyAlignment: 0
      m_AllTileFlags: 1073741825
  - first: {x: 11, y: -7, z: 0}
    second:
      serializedVersion: 2
      m_TileIndex: 96
      m_TileSpriteIndex: 96
      m_TileMatrixIndex: 0
      m_TileColorIndex: 0
      m_TileObjectToInstantiateIndex: 65535
      dummyAlignment: 0
      m_AllTileFlags: 1073741825
  - first: {x: 17, y: -7, z: 0}
    second:
      serializedVersion: 2
      m_TileIndex: 97
      m_TileSpriteIndex: 97
      m_TileMatrixIndex: 0
      m_TileColorIndex: 0
      m_TileObjectToInstantiateIndex: 65535
      dummyAlignment: 0
      m_AllTileFlags: 1073741825
  - first: {x: 18, y: -7, z: 0}
    second:
      serializedVersion: 2
      m_TileIndex: 98
      m_TileSpriteIndex: 98
      m_TileMatrixIndex: 0
      m_TileColorIndex: 0
      m_TileObjectToInstantiateIndex: 65535
      dummyAlignment: 0
      m_AllTileFlags: 1073741825
  - first: {x: 0, y: -6, z: 0}
    second:
      serializedVersion: 2
      m_TileIndex: 71
      m_TileSpriteIndex: 71
      m_TileMatrixIndex: 0
      m_TileColorIndex: 0
      m_TileObjectToInstantiateIndex: 65535
      dummyAlignment: 0
      m_AllTileFlags: 1073741825
  - first: {x: 1, y: -6, z: 0}
    second:
      serializedVersion: 2
      m_TileIndex: 72
      m_TileSpriteIndex: 72
      m_TileMatrixIndex: 0
      m_TileColorIndex: 0
      m_TileObjectToInstantiateIndex: 65535
      dummyAlignment: 0
      m_AllTileFlags: 1073741825
  - first: {x: 2, y: -6, z: 0}
    second:
      serializedVersion: 2
      m_TileIndex: 73
      m_TileSpriteIndex: 73
      m_TileMatrixIndex: 0
      m_TileColorIndex: 0
      m_TileObjectToInstantiateIndex: 65535
      dummyAlignment: 0
      m_AllTileFlags: 1073741825
  - first: {x: 3, y: -6, z: 0}
    second:
      serializedVersion: 2
      m_TileIndex: 74
      m_TileSpriteIndex: 74
      m_TileMatrixIndex: 0
      m_TileColorIndex: 0
      m_TileObjectToInstantiateIndex: 65535
      dummyAlignment: 0
      m_AllTileFlags: 1073741825
  - first: {x: 5, y: -6, z: 0}
    second:
      serializedVersion: 2
      m_TileIndex: 75
      m_TileSpriteIndex: 75
      m_TileMatrixIndex: 0
      m_TileColorIndex: 0
      m_TileObjectToInstantiateIndex: 65535
      dummyAlignment: 0
      m_AllTileFlags: 1073741825
  - first: {x: 6, y: -6, z: 0}
    second:
      serializedVersion: 2
      m_TileIndex: 76
      m_TileSpriteIndex: 76
      m_TileMatrixIndex: 0
      m_TileColorIndex: 0
      m_TileObjectToInstantiateIndex: 65535
      dummyAlignment: 0
      m_AllTileFlags: 1073741825
  - first: {x: 7, y: -6, z: 0}
    second:
      serializedVersion: 2
      m_TileIndex: 77
      m_TileSpriteIndex: 77
      m_TileMatrixIndex: 0
      m_TileColorIndex: 0
      m_TileObjectToInstantiateIndex: 65535
      dummyAlignment: 0
      m_AllTileFlags: 1073741825
  - first: {x: 8, y: -6, z: 0}
    second:
      serializedVersion: 2
      m_TileIndex: 78
      m_TileSpriteIndex: 78
      m_TileMatrixIndex: 0
      m_TileColorIndex: 0
      m_TileObjectToInstantiateIndex: 65535
      dummyAlignment: 0
      m_AllTileFlags: 1073741825
  - first: {x: 10, y: -6, z: 0}
    second:
      serializedVersion: 2
      m_TileIndex: 79
      m_TileSpriteIndex: 79
      m_TileMatrixIndex: 0
      m_TileColorIndex: 0
      m_TileObjectToInstantiateIndex: 65535
      dummyAlignment: 0
      m_AllTileFlags: 1073741825
  - first: {x: 11, y: -6, z: 0}
    second:
      serializedVersion: 2
      m_TileIndex: 80
      m_TileSpriteIndex: 80
      m_TileMatrixIndex: 0
      m_TileColorIndex: 0
      m_TileObjectToInstantiateIndex: 65535
      dummyAlignment: 0
      m_AllTileFlags: 1073741825
  - first: {x: 12, y: -6, z: 0}
    second:
      serializedVersion: 2
      m_TileIndex: 81
      m_TileSpriteIndex: 81
      m_TileMatrixIndex: 0
      m_TileColorIndex: 0
      m_TileObjectToInstantiateIndex: 65535
      dummyAlignment: 0
      m_AllTileFlags: 1073741825
  - first: {x: 13, y: -6, z: 0}
    second:
      serializedVersion: 2
      m_TileIndex: 82
      m_TileSpriteIndex: 82
      m_TileMatrixIndex: 0
      m_TileColorIndex: 0
      m_TileObjectToInstantiateIndex: 65535
      dummyAlignment: 0
      m_AllTileFlags: 1073741825
  - first: {x: 15, y: -6, z: 0}
    second:
      serializedVersion: 2
      m_TileIndex: 83
      m_TileSpriteIndex: 83
      m_TileMatrixIndex: 0
      m_TileColorIndex: 0
      m_TileObjectToInstantiateIndex: 65535
      dummyAlignment: 0
      m_AllTileFlags: 1073741825
  - first: {x: 16, y: -6, z: 0}
    second:
      serializedVersion: 2
      m_TileIndex: 84
      m_TileSpriteIndex: 84
      m_TileMatrixIndex: 0
      m_TileColorIndex: 0
      m_TileObjectToInstantiateIndex: 65535
      dummyAlignment: 0
      m_AllTileFlags: 1073741825
  - first: {x: 17, y: -6, z: 0}
    second:
      serializedVersion: 2
      m_TileIndex: 85
      m_TileSpriteIndex: 85
      m_TileMatrixIndex: 0
      m_TileColorIndex: 0
      m_TileObjectToInstantiateIndex: 65535
      dummyAlignment: 0
      m_AllTileFlags: 1073741825
  - first: {x: 18, y: -6, z: 0}
    second:
      serializedVersion: 2
      m_TileIndex: 86
      m_TileSpriteIndex: 86
      m_TileMatrixIndex: 0
      m_TileColorIndex: 0
      m_TileObjectToInstantiateIndex: 65535
      dummyAlignment: 0
      m_AllTileFlags: 1073741825
  - first: {x: 0, y: -5, z: 0}
    second:
      serializedVersion: 2
      m_TileIndex: 56
      m_TileSpriteIndex: 56
      m_TileMatrixIndex: 0
      m_TileColorIndex: 0
      m_TileObjectToInstantiateIndex: 65535
      dummyAlignment: 0
      m_AllTileFlags: 1073741825
  - first: {x: 1, y: -5, z: 0}
    second:
      serializedVersion: 2
      m_TileIndex: 57
      m_TileSpriteIndex: 57
      m_TileMatrixIndex: 0
      m_TileColorIndex: 0
      m_TileObjectToInstantiateIndex: 65535
      dummyAlignment: 0
      m_AllTileFlags: 1073741825
  - first: {x: 2, y: -5, z: 0}
    second:
      serializedVersion: 2
      m_TileIndex: 58
      m_TileSpriteIndex: 58
      m_TileMatrixIndex: 0
      m_TileColorIndex: 0
      m_TileObjectToInstantiateIndex: 65535
      dummyAlignment: 0
      m_AllTileFlags: 1073741825
  - first: {x: 3, y: -5, z: 0}
    second:
      serializedVersion: 2
      m_TileIndex: 59
      m_TileSpriteIndex: 59
      m_TileMatrixIndex: 0
      m_TileColorIndex: 0
      m_TileObjectToInstantiateIndex: 65535
      dummyAlignment: 0
      m_AllTileFlags: 1073741825
  - first: {x: 4, y: -5, z: 0}
    second:
      serializedVersion: 2
      m_TileIndex: 60
      m_TileSpriteIndex: 60
      m_TileMatrixIndex: 0
      m_TileColorIndex: 0
      m_TileObjectToInstantiateIndex: 65535
      dummyAlignment: 0
      m_AllTileFlags: 1073741825
  - first: {x: 5, y: -5, z: 0}
    second:
      serializedVersion: 2
      m_TileIndex: 61
      m_TileSpriteIndex: 61
      m_TileMatrixIndex: 0
      m_TileColorIndex: 0
      m_TileObjectToInstantiateIndex: 65535
      dummyAlignment: 0
      m_AllTileFlags: 1073741825
  - first: {x: 6, y: -5, z: 0}
    second:
      serializedVersion: 2
      m_TileIndex: 62
      m_TileSpriteIndex: 62
      m_TileMatrixIndex: 0
      m_TileColorIndex: 0
      m_TileObjectToInstantiateIndex: 65535
      dummyAlignment: 0
      m_AllTileFlags: 1073741825
  - first: {x: 7, y: -5, z: 0}
    second:
      serializedVersion: 2
      m_TileIndex: 63
      m_TileSpriteIndex: 63
      m_TileMatrixIndex: 0
      m_TileColorIndex: 0
      m_TileObjectToInstantiateIndex: 65535
      dummyAlignment: 0
      m_AllTileFlags: 1073741825
  - first: {x: 8, y: -5, z: 0}
    second:
      serializedVersion: 2
      m_TileIndex: 64
      m_TileSpriteIndex: 64
      m_TileMatrixIndex: 0
      m_TileColorIndex: 0
      m_TileObjectToInstantiateIndex: 65535
      dummyAlignment: 0
      m_AllTileFlags: 1073741825
  - first: {x: 11, y: -5, z: 0}
    second:
      serializedVersion: 2
      m_TileIndex: 65
      m_TileSpriteIndex: 65
      m_TileMatrixIndex: 0
      m_TileColorIndex: 0
      m_TileObjectToInstantiateIndex: 65535
      dummyAlignment: 0
      m_AllTileFlags: 1073741825
  - first: {x: 12, y: -5, z: 0}
    second:
      serializedVersion: 2
      m_TileIndex: 66
      m_TileSpriteIndex: 66
      m_TileMatrixIndex: 0
      m_TileColorIndex: 0
      m_TileObjectToInstantiateIndex: 65535
      dummyAlignment: 0
      m_AllTileFlags: 1073741825
  - first: {x: 13, y: -5, z: 0}
    second:
      serializedVersion: 2
      m_TileIndex: 67
      m_TileSpriteIndex: 67
      m_TileMatrixIndex: 0
      m_TileColorIndex: 0
      m_TileObjectToInstantiateIndex: 65535
      dummyAlignment: 0
      m_AllTileFlags: 1073741825
  - first: {x: 15, y: -5, z: 0}
    second:
      serializedVersion: 2
      m_TileIndex: 68
      m_TileSpriteIndex: 68
      m_TileMatrixIndex: 0
      m_TileColorIndex: 0
      m_TileObjectToInstantiateIndex: 65535
      dummyAlignment: 0
      m_AllTileFlags: 1073741825
  - first: {x: 16, y: -5, z: 0}
    second:
      serializedVersion: 2
      m_TileIndex: 69
      m_TileSpriteIndex: 69
      m_TileMatrixIndex: 0
      m_TileColorIndex: 0
      m_TileObjectToInstantiateIndex: 65535
      dummyAlignment: 0
      m_AllTileFlags: 1073741825
  - first: {x: 17, y: -5, z: 0}
    second:
      serializedVersion: 2
      m_TileIndex: 70
      m_TileSpriteIndex: 70
      m_TileMatrixIndex: 0
      m_TileColorIndex: 0
      m_TileObjectToInstantiateIndex: 65535
      dummyAlignment: 0
      m_AllTileFlags: 1073741825
  - first: {x: 0, y: -4, z: 0}
    second:
      serializedVersion: 2
      m_TileIndex: 45
      m_TileSpriteIndex: 45
      m_TileMatrixIndex: 0
      m_TileColorIndex: 0
      m_TileObjectToInstantiateIndex: 65535
      dummyAlignment: 0
      m_AllTileFlags: 1073741825
  - first: {x: 1, y: -4, z: 0}
    second:
      serializedVersion: 2
      m_TileIndex: 46
      m_TileSpriteIndex: 46
      m_TileMatrixIndex: 0
      m_TileColorIndex: 0
      m_TileObjectToInstantiateIndex: 65535
      dummyAlignment: 0
      m_AllTileFlags: 1073741825
  - first: {x: 2, y: -4, z: 0}
    second:
      serializedVersion: 2
      m_TileIndex: 47
      m_TileSpriteIndex: 47
      m_TileMatrixIndex: 0
      m_TileColorIndex: 0
      m_TileObjectToInstantiateIndex: 65535
      dummyAlignment: 0
      m_AllTileFlags: 1073741825
  - first: {x: 3, y: -4, z: 0}
    second:
      serializedVersion: 2
      m_TileIndex: 48
      m_TileSpriteIndex: 48
      m_TileMatrixIndex: 0
      m_TileColorIndex: 0
      m_TileObjectToInstantiateIndex: 65535
      dummyAlignment: 0
      m_AllTileFlags: 1073741825
  - first: {x: 4, y: -4, z: 0}
    second:
      serializedVersion: 2
      m_TileIndex: 49
      m_TileSpriteIndex: 49
      m_TileMatrixIndex: 0
      m_TileColorIndex: 0
      m_TileObjectToInstantiateIndex: 65535
      dummyAlignment: 0
      m_AllTileFlags: 1073741825
  - first: {x: 5, y: -4, z: 0}
    second:
      serializedVersion: 2
      m_TileIndex: 50
      m_TileSpriteIndex: 50
      m_TileMatrixIndex: 0
      m_TileColorIndex: 0
      m_TileObjectToInstantiateIndex: 65535
      dummyAlignment: 0
      m_AllTileFlags: 1073741825
  - first: {x: 6, y: -4, z: 0}
    second:
      serializedVersion: 2
      m_TileIndex: 51
      m_TileSpriteIndex: 51
      m_TileMatrixIndex: 0
      m_TileColorIndex: 0
      m_TileObjectToInstantiateIndex: 65535
      dummyAlignment: 0
      m_AllTileFlags: 1073741825
  - first: {x: 7, y: -4, z: 0}
    second:
      serializedVersion: 2
      m_TileIndex: 52
      m_TileSpriteIndex: 52
      m_TileMatrixIndex: 0
      m_TileColorIndex: 0
      m_TileObjectToInstantiateIndex: 65535
      dummyAlignment: 0
      m_AllTileFlags: 1073741825
  - first: {x: 8, y: -4, z: 0}
    second:
      serializedVersion: 2
      m_TileIndex: 53
      m_TileSpriteIndex: 53
      m_TileMatrixIndex: 0
      m_TileColorIndex: 0
      m_TileObjectToInstantiateIndex: 65535
      dummyAlignment: 0
      m_AllTileFlags: 1073741825
  - first: {x: 13, y: -4, z: 0}
    second:
      serializedVersion: 2
      m_TileIndex: 54
      m_TileSpriteIndex: 54
      m_TileMatrixIndex: 0
      m_TileColorIndex: 0
      m_TileObjectToInstantiateIndex: 65535
      dummyAlignment: 0
      m_AllTileFlags: 1073741825
  - first: {x: 15, y: -4, z: 0}
    second:
      serializedVersion: 2
      m_TileIndex: 55
      m_TileSpriteIndex: 55
      m_TileMatrixIndex: 0
      m_TileColorIndex: 0
      m_TileObjectToInstantiateIndex: 65535
      dummyAlignment: 0
      m_AllTileFlags: 1073741825
  - first: {x: 0, y: -3, z: 0}
    second:
      serializedVersion: 2
      m_TileIndex: 32
      m_TileSpriteIndex: 32
      m_TileMatrixIndex: 0
      m_TileColorIndex: 0
      m_TileObjectToInstantiateIndex: 65535
      dummyAlignment: 0
      m_AllTileFlags: 1073741825
  - first: {x: 2, y: -3, z: 0}
    second:
      serializedVersion: 2
      m_TileIndex: 33
      m_TileSpriteIndex: 33
      m_TileMatrixIndex: 0
      m_TileColorIndex: 0
      m_TileObjectToInstantiateIndex: 65535
      dummyAlignment: 0
      m_AllTileFlags: 1073741825
  - first: {x: 3, y: -3, z: 0}
    second:
      serializedVersion: 2
      m_TileIndex: 34
      m_TileSpriteIndex: 34
      m_TileMatrixIndex: 0
      m_TileColorIndex: 0
      m_TileObjectToInstantiateIndex: 65535
      dummyAlignment: 0
      m_AllTileFlags: 1073741825
  - first: {x: 4, y: -3, z: 0}
    second:
      serializedVersion: 2
      m_TileIndex: 35
      m_TileSpriteIndex: 35
      m_TileMatrixIndex: 0
      m_TileColorIndex: 0
      m_TileObjectToInstantiateIndex: 65535
      dummyAlignment: 0
      m_AllTileFlags: 1073741825
  - first: {x: 5, y: -3, z: 0}
    second:
      serializedVersion: 2
      m_TileIndex: 36
      m_TileSpriteIndex: 36
      m_TileMatrixIndex: 0
      m_TileColorIndex: 0
      m_TileObjectToInstantiateIndex: 65535
      dummyAlignment: 0
      m_AllTileFlags: 1073741825
  - first: {x: 6, y: -3, z: 0}
    second:
      serializedVersion: 2
      m_TileIndex: 37
      m_TileSpriteIndex: 37
      m_TileMatrixIndex: 0
      m_TileColorIndex: 0
      m_TileObjectToInstantiateIndex: 65535
      dummyAlignment: 0
      m_AllTileFlags: 1073741825
  - first: {x: 8, y: -3, z: 0}
    second:
      serializedVersion: 2
      m_TileIndex: 38
      m_TileSpriteIndex: 38
      m_TileMatrixIndex: 0
      m_TileColorIndex: 0
      m_TileObjectToInstantiateIndex: 65535
      dummyAlignment: 0
      m_AllTileFlags: 1073741825
  - first: {x: 10, y: -3, z: 0}
    second:
      serializedVersion: 2
      m_TileIndex: 39
      m_TileSpriteIndex: 39
      m_TileMatrixIndex: 0
      m_TileColorIndex: 0
      m_TileObjectToInstantiateIndex: 65535
      dummyAlignment: 0
      m_AllTileFlags: 1073741825
  - first: {x: 12, y: -3, z: 0}
    second:
      serializedVersion: 2
      m_TileIndex: 40
      m_TileSpriteIndex: 40
      m_TileMatrixIndex: 0
      m_TileColorIndex: 0
      m_TileObjectToInstantiateIndex: 65535
      dummyAlignment: 0
      m_AllTileFlags: 1073741825
  - first: {x: 13, y: -3, z: 0}
    second:
      serializedVersion: 2
      m_TileIndex: 41
      m_TileSpriteIndex: 41
      m_TileMatrixIndex: 0
      m_TileColorIndex: 0
      m_TileObjectToInstantiateIndex: 65535
      dummyAlignment: 0
      m_AllTileFlags: 1073741825
  - first: {x: 14, y: -3, z: 0}
    second:
      serializedVersion: 2
      m_TileIndex: 42
      m_TileSpriteIndex: 42
      m_TileMatrixIndex: 0
      m_TileColorIndex: 0
      m_TileObjectToInstantiateIndex: 65535
      dummyAlignment: 0
      m_AllTileFlags: 1073741825
  - first: {x: 15, y: -3, z: 0}
    second:
      serializedVersion: 2
      m_TileIndex: 43
      m_TileSpriteIndex: 43
      m_TileMatrixIndex: 0
      m_TileColorIndex: 0
      m_TileObjectToInstantiateIndex: 65535
      dummyAlignment: 0
      m_AllTileFlags: 1073741825
  - first: {x: 18, y: -3, z: 0}
    second:
      serializedVersion: 2
      m_TileIndex: 44
      m_TileSpriteIndex: 44
      m_TileMatrixIndex: 0
      m_TileColorIndex: 0
      m_TileObjectToInstantiateIndex: 65535
      dummyAlignment: 0
      m_AllTileFlags: 1073741825
  - first: {x: 0, y: -2, z: 0}
    second:
      serializedVersion: 2
      m_TileIndex: 16
      m_TileSpriteIndex: 16
      m_TileMatrixIndex: 0
      m_TileColorIndex: 0
      m_TileObjectToInstantiateIndex: 65535
      dummyAlignment: 0
      m_AllTileFlags: 1073741825
  - first: {x: 1, y: -2, z: 0}
    second:
      serializedVersion: 2
      m_TileIndex: 17
      m_TileSpriteIndex: 17
      m_TileMatrixIndex: 0
      m_TileColorIndex: 0
      m_TileObjectToInstantiateIndex: 65535
      dummyAlignment: 0
      m_AllTileFlags: 1073741825
  - first: {x: 2, y: -2, z: 0}
    second:
      serializedVersion: 2
      m_TileIndex: 18
      m_TileSpriteIndex: 18
      m_TileMatrixIndex: 0
      m_TileColorIndex: 0
      m_TileObjectToInstantiateIndex: 65535
      dummyAlignment: 0
      m_AllTileFlags: 1073741825
  - first: {x: 3, y: -2, z: 0}
    second:
      serializedVersion: 2
      m_TileIndex: 19
      m_TileSpriteIndex: 19
      m_TileMatrixIndex: 0
      m_TileColorIndex: 0
      m_TileObjectToInstantiateIndex: 65535
      dummyAlignment: 0
      m_AllTileFlags: 1073741825
  - first: {x: 4, y: -2, z: 0}
    second:
      serializedVersion: 2
      m_TileIndex: 20
      m_TileSpriteIndex: 20
      m_TileMatrixIndex: 0
      m_TileColorIndex: 0
      m_TileObjectToInstantiateIndex: 65535
      dummyAlignment: 0
      m_AllTileFlags: 1073741825
  - first: {x: 5, y: -2, z: 0}
    second:
      serializedVersion: 2
      m_TileIndex: 21
      m_TileSpriteIndex: 21
      m_TileMatrixIndex: 0
      m_TileColorIndex: 0
      m_TileObjectToInstantiateIndex: 65535
      dummyAlignment: 0
      m_AllTileFlags: 1073741825
  - first: {x: 6, y: -2, z: 0}
    second:
      serializedVersion: 2
      m_TileIndex: 22
      m_TileSpriteIndex: 22
      m_TileMatrixIndex: 0
      m_TileColorIndex: 0
      m_TileObjectToInstantiateIndex: 65535
      dummyAlignment: 0
      m_AllTileFlags: 1073741825
  - first: {x: 7, y: -2, z: 0}
    second:
      serializedVersion: 2
      m_TileIndex: 23
      m_TileSpriteIndex: 23
      m_TileMatrixIndex: 0
      m_TileColorIndex: 0
      m_TileObjectToInstantiateIndex: 65535
      dummyAlignment: 0
      m_AllTileFlags: 1073741825
  - first: {x: 8, y: -2, z: 0}
    second:
      serializedVersion: 2
      m_TileIndex: 24
      m_TileSpriteIndex: 24
      m_TileMatrixIndex: 0
      m_TileColorIndex: 0
      m_TileObjectToInstantiateIndex: 65535
      dummyAlignment: 0
      m_AllTileFlags: 1073741825
  - first: {x: 10, y: -2, z: 0}
    second:
      serializedVersion: 2
      m_TileIndex: 25
      m_TileSpriteIndex: 25
      m_TileMatrixIndex: 0
      m_TileColorIndex: 0
      m_TileObjectToInstantiateIndex: 65535
      dummyAlignment: 0
      m_AllTileFlags: 1073741825
  - first: {x: 12, y: -2, z: 0}
    second:
      serializedVersion: 2
      m_TileIndex: 26
      m_TileSpriteIndex: 26
      m_TileMatrixIndex: 0
      m_TileColorIndex: 0
      m_TileObjectToInstantiateIndex: 65535
      dummyAlignment: 0
      m_AllTileFlags: 1073741825
  - first: {x: 13, y: -2, z: 0}
    second:
      serializedVersion: 2
      m_TileIndex: 27
      m_TileSpriteIndex: 27
      m_TileMatrixIndex: 0
      m_TileColorIndex: 0
      m_TileObjectToInstantiateIndex: 65535
      dummyAlignment: 0
      m_AllTileFlags: 1073741825
  - first: {x: 14, y: -2, z: 0}
    second:
      serializedVersion: 2
      m_TileIndex: 28
      m_TileSpriteIndex: 28
      m_TileMatrixIndex: 0
      m_TileColorIndex: 0
      m_TileObjectToInstantiateIndex: 65535
      dummyAlignment: 0
      m_AllTileFlags: 1073741825
  - first: {x: 15, y: -2, z: 0}
    second:
      serializedVersion: 2
      m_TileIndex: 29
      m_TileSpriteIndex: 29
      m_TileMatrixIndex: 0
      m_TileColorIndex: 0
      m_TileObjectToInstantiateIndex: 65535
      dummyAlignment: 0
      m_AllTileFlags: 1073741825
  - first: {x: 16, y: -2, z: 0}
    second:
      serializedVersion: 2
      m_TileIndex: 30
      m_TileSpriteIndex: 30
      m_TileMatrixIndex: 0
      m_TileColorIndex: 0
      m_TileObjectToInstantiateIndex: 65535
      dummyAlignment: 0
      m_AllTileFlags: 1073741825
  - first: {x: 18, y: -2, z: 0}
    second:
      serializedVersion: 2
      m_TileIndex: 31
      m_TileSpriteIndex: 31
      m_TileMatrixIndex: 0
      m_TileColorIndex: 0
      m_TileObjectToInstantiateIndex: 65535
      dummyAlignment: 0
      m_AllTileFlags: 1073741825
  - first: {x: 0, y: -1, z: 0}
    second:
      serializedVersion: 2
      m_TileIndex: 0
      m_TileSpriteIndex: 0
      m_TileMatrixIndex: 0
      m_TileColorIndex: 0
      m_TileObjectToInstantiateIndex: 65535
      dummyAlignment: 0
      m_AllTileFlags: 1073741825
  - first: {x: 1, y: -1, z: 0}
    second:
      serializedVersion: 2
      m_TileIndex: 1
      m_TileSpriteIndex: 1
      m_TileMatrixIndex: 0
      m_TileColorIndex: 0
      m_TileObjectToInstantiateIndex: 65535
      dummyAlignment: 0
      m_AllTileFlags: 1073741825
  - first: {x: 2, y: -1, z: 0}
    second:
      serializedVersion: 2
      m_TileIndex: 2
      m_TileSpriteIndex: 2
      m_TileMatrixIndex: 0
      m_TileColorIndex: 0
      m_TileObjectToInstantiateIndex: 65535
      dummyAlignment: 0
      m_AllTileFlags: 1073741825
  - first: {x: 3, y: -1, z: 0}
    second:
      serializedVersion: 2
      m_TileIndex: 3
      m_TileSpriteIndex: 3
      m_TileMatrixIndex: 0
      m_TileColorIndex: 0
      m_TileObjectToInstantiateIndex: 65535
      dummyAlignment: 0
      m_AllTileFlags: 1073741825
  - first: {x: 4, y: -1, z: 0}
    second:
      serializedVersion: 2
      m_TileIndex: 4
      m_TileSpriteIndex: 4
      m_TileMatrixIndex: 0
      m_TileColorIndex: 0
      m_TileObjectToInstantiateIndex: 65535
      dummyAlignment: 0
      m_AllTileFlags: 1073741825
  - first: {x: 5, y: -1, z: 0}
    second:
      serializedVersion: 2
      m_TileIndex: 5
      m_TileSpriteIndex: 5
      m_TileMatrixIndex: 0
      m_TileColorIndex: 0
      m_TileObjectToInstantiateIndex: 65535
      dummyAlignment: 0
      m_AllTileFlags: 1073741825
  - first: {x: 6, y: -1, z: 0}
    second:
      serializedVersion: 2
      m_TileIndex: 6
      m_TileSpriteIndex: 6
      m_TileMatrixIndex: 0
      m_TileColorIndex: 0
      m_TileObjectToInstantiateIndex: 65535
      dummyAlignment: 0
      m_AllTileFlags: 1073741825
  - first: {x: 7, y: -1, z: 0}
    second:
      serializedVersion: 2
      m_TileIndex: 7
      m_TileSpriteIndex: 7
      m_TileMatrixIndex: 0
      m_TileColorIndex: 0
      m_TileObjectToInstantiateIndex: 65535
      dummyAlignment: 0
      m_AllTileFlags: 1073741825
  - first: {x: 8, y: -1, z: 0}
    second:
      serializedVersion: 2
      m_TileIndex: 8
      m_TileSpriteIndex: 8
      m_TileMatrixIndex: 0
      m_TileColorIndex: 0
      m_TileObjectToInstantiateIndex: 65535
      dummyAlignment: 0
      m_AllTileFlags: 1073741825
  - first: {x: 10, y: -1, z: 0}
    second:
      serializedVersion: 2
      m_TileIndex: 9
      m_TileSpriteIndex: 9
      m_TileMatrixIndex: 0
      m_TileColorIndex: 0
      m_TileObjectToInstantiateIndex: 65535
      dummyAlignment: 0
      m_AllTileFlags: 1073741825
  - first: {x: 12, y: -1, z: 0}
    second:
      serializedVersion: 2
      m_TileIndex: 10
      m_TileSpriteIndex: 10
      m_TileMatrixIndex: 0
      m_TileColorIndex: 0
      m_TileObjectToInstantiateIndex: 65535
      dummyAlignment: 0
      m_AllTileFlags: 1073741825
  - first: {x: 13, y: -1, z: 0}
    second:
      serializedVersion: 2
      m_TileIndex: 11
      m_TileSpriteIndex: 11
      m_TileMatrixIndex: 0
      m_TileColorIndex: 0
      m_TileObjectToInstantiateIndex: 65535
      dummyAlignment: 0
      m_AllTileFlags: 1073741825
  - first: {x: 14, y: -1, z: 0}
    second:
      serializedVersion: 2
      m_TileIndex: 12
      m_TileSpriteIndex: 12
      m_TileMatrixIndex: 0
      m_TileColorIndex: 0
      m_TileObjectToInstantiateIndex: 65535
      dummyAlignment: 0
      m_AllTileFlags: 1073741825
  - first: {x: 15, y: -1, z: 0}
    second:
      serializedVersion: 2
      m_TileIndex: 13
      m_TileSpriteIndex: 13
      m_TileMatrixIndex: 0
      m_TileColorIndex: 0
      m_TileObjectToInstantiateIndex: 65535
      dummyAlignment: 0
      m_AllTileFlags: 1073741825
  - first: {x: 16, y: -1, z: 0}
    second:
      serializedVersion: 2
      m_TileIndex: 14
      m_TileSpriteIndex: 14
      m_TileMatrixIndex: 0
      m_TileColorIndex: 0
      m_TileObjectToInstantiateIndex: 65535
      dummyAlignment: 0
      m_AllTileFlags: 1073741825
  - first: {x: 18, y: -1, z: 0}
    second:
      serializedVersion: 2
      m_TileIndex: 15
      m_TileSpriteIndex: 15
      m_TileMatrixIndex: 0
      m_TileColorIndex: 0
      m_TileObjectToInstantiateIndex: 65535
      dummyAlignment: 0
      m_AllTileFlags: 1073741825
  m_AnimatedTiles: {}
  m_TileAssetArray:
  - m_RefCount: 1
    m_Data: {fileID: 11400000, guid: 3855f6a6ab720344587f7c6d9134ce04, type: 2}
  - m_RefCount: 1
    m_Data: {fileID: 11400000, guid: fe498b3497eed784f9984754364f3e43, type: 2}
  - m_RefCount: 1
    m_Data: {fileID: 11400000, guid: 4ad7a889522a08447a91b860bdf548e2, type: 2}
  - m_RefCount: 1
    m_Data: {fileID: 11400000, guid: fb32a03a3d3798b4d889c8dfa132994b, type: 2}
  - m_RefCount: 1
    m_Data: {fileID: 11400000, guid: 928e8bdbc63f66541a367f97356dd8c2, type: 2}
  - m_RefCount: 1
    m_Data: {fileID: 11400000, guid: 54ba3a80ba8f451439efd1b6d2ba3b2d, type: 2}
  - m_RefCount: 1
    m_Data: {fileID: 11400000, guid: 7a28b105ac05dd845b1e842a2284ddce, type: 2}
  - m_RefCount: 1
    m_Data: {fileID: 11400000, guid: 6fa8c919773d9c24487ec4f9a3820a18, type: 2}
  - m_RefCount: 1
    m_Data: {fileID: 11400000, guid: e4e8835c3c10145428328999e7ba44cf, type: 2}
  - m_RefCount: 1
    m_Data: {fileID: 11400000, guid: 666488fc71cf53a43ae515d15e57f11d, type: 2}
  - m_RefCount: 1
    m_Data: {fileID: 11400000, guid: 80f7be13b2e93884aa0c57f4c2ea7bfd, type: 2}
  - m_RefCount: 1
    m_Data: {fileID: 11400000, guid: 566dc4240a0164d4f9eb7ce73a624ea3, type: 2}
  - m_RefCount: 1
    m_Data: {fileID: 11400000, guid: 1582852bb7228bb4b91d45f11fe48dc9, type: 2}
  - m_RefCount: 1
    m_Data: {fileID: 11400000, guid: 25343547c50cc7a44a692877174c1a88, type: 2}
  - m_RefCount: 1
    m_Data: {fileID: 11400000, guid: c4890292e5180f24d8a481a80a38a087, type: 2}
  - m_RefCount: 1
    m_Data: {fileID: 11400000, guid: f641dc134b6eaa640bbbd49ccadf581b, type: 2}
  - m_RefCount: 1
    m_Data: {fileID: 11400000, guid: 2985b9631cac3ae4c968fba09ac081aa, type: 2}
  - m_RefCount: 1
    m_Data: {fileID: 11400000, guid: 18c61ce528667d346ae7f7882f89007b, type: 2}
  - m_RefCount: 1
    m_Data: {fileID: 11400000, guid: 9138776e6a72ed944813858b8828f498, type: 2}
  - m_RefCount: 1
    m_Data: {fileID: 11400000, guid: 5e810034b8db47845a73c210d8357db0, type: 2}
  - m_RefCount: 1
    m_Data: {fileID: 11400000, guid: c0b8210b43ee0284c9e716b80ce2107d, type: 2}
  - m_RefCount: 1
    m_Data: {fileID: 11400000, guid: 54bb4646adeae8840abbdae7a2e3686a, type: 2}
  - m_RefCount: 1
    m_Data: {fileID: 11400000, guid: aaa4d1bcc12f0864d9294adc372b3dca, type: 2}
  - m_RefCount: 1
    m_Data: {fileID: 11400000, guid: df98c8b094bcd914894d381ed33e2b75, type: 2}
  - m_RefCount: 1
    m_Data: {fileID: 11400000, guid: 1944f7bcc5151a84ca189987d3ec4164, type: 2}
  - m_RefCount: 1
    m_Data: {fileID: 11400000, guid: 7ad113a1bd89f6c46af4453e909d1d39, type: 2}
  - m_RefCount: 1
    m_Data: {fileID: 11400000, guid: ecbaec224dc87aa4e9a607e604fc3467, type: 2}
  - m_RefCount: 1
    m_Data: {fileID: 11400000, guid: 3f6bcb4f6d41001419ec55dbc1f61736, type: 2}
  - m_RefCount: 1
    m_Data: {fileID: 11400000, guid: 9af0bfaa0d9d44f4b8f99603d36cef40, type: 2}
  - m_RefCount: 1
    m_Data: {fileID: 11400000, guid: d0ef074d24175b94283fe2792304b9ec, type: 2}
  - m_RefCount: 1
    m_Data: {fileID: 11400000, guid: d6e7f166f98be324da6bda9c0a9494e8, type: 2}
  - m_RefCount: 1
    m_Data: {fileID: 11400000, guid: 3c1d9ba73a92a044ba2186bffe61ec6f, type: 2}
  - m_RefCount: 1
    m_Data: {fileID: 11400000, guid: f0279d047606b7e42b36016dfc366443, type: 2}
  - m_RefCount: 1
    m_Data: {fileID: 11400000, guid: 95ab1d89c2b75a2439545ea91ee16a3a, type: 2}
  - m_RefCount: 1
    m_Data: {fileID: 11400000, guid: 321a9d2562739614ca424f7f3df1f2bc, type: 2}
  - m_RefCount: 1
    m_Data: {fileID: 11400000, guid: e20513ac7824b4f46a3622b81301f0ba, type: 2}
  - m_RefCount: 1
    m_Data: {fileID: 11400000, guid: 5022cb7cd2e4a7c488d384b34a3f0813, type: 2}
  - m_RefCount: 1
    m_Data: {fileID: 11400000, guid: 5af212c671b878a4294b1814b484a72b, type: 2}
  - m_RefCount: 1
    m_Data: {fileID: 11400000, guid: 619d3ad19b29ef042a6c643ef5ff31b9, type: 2}
  - m_RefCount: 1
    m_Data: {fileID: 11400000, guid: fc83de65c02b6f54b84d6d18a055a51c, type: 2}
  - m_RefCount: 1
    m_Data: {fileID: 11400000, guid: 245da5e76e7b20b448c952746e4fa3ad, type: 2}
  - m_RefCount: 1
    m_Data: {fileID: 11400000, guid: 36ed86c53fd758142a309487f309c3ec, type: 2}
  - m_RefCount: 1
    m_Data: {fileID: 11400000, guid: be2b1142760360947819337c9b50816c, type: 2}
  - m_RefCount: 1
    m_Data: {fileID: 11400000, guid: 2f52d183cd6760149947dbeeff0cad05, type: 2}
  - m_RefCount: 1
    m_Data: {fileID: 11400000, guid: 92905b082c47114438a5717ed16856eb, type: 2}
  - m_RefCount: 1
    m_Data: {fileID: 11400000, guid: 3f28a8484b9001c4f84591117a215bb1, type: 2}
  - m_RefCount: 1
    m_Data: {fileID: 11400000, guid: a28b374b01498b74a9c59b7d27c8efbb, type: 2}
  - m_RefCount: 1
    m_Data: {fileID: 11400000, guid: b4cf47590b855a043b06f172f11d4531, type: 2}
  - m_RefCount: 1
    m_Data: {fileID: 11400000, guid: 153c73a3e83222f48834ffc8ec7ae692, type: 2}
  - m_RefCount: 1
    m_Data: {fileID: 11400000, guid: 25a4e0036da4d6c469ecb4037c6cf12c, type: 2}
  - m_RefCount: 1
    m_Data: {fileID: 11400000, guid: d0750c1b22c5a234fbfdd27ea87400f7, type: 2}
  - m_RefCount: 1
    m_Data: {fileID: 11400000, guid: 2e1cd63dd5352fc41863d328905d39a4, type: 2}
  - m_RefCount: 1
    m_Data: {fileID: 11400000, guid: 0dcedc3ad6f8faa458173229a3757e1f, type: 2}
  - m_RefCount: 1
    m_Data: {fileID: 11400000, guid: 2488ba6ca62f5e54fa6e60aafd3c6bb6, type: 2}
  - m_RefCount: 1
    m_Data: {fileID: 11400000, guid: 96c6d0d5d7e0edd4cba92518c1b27611, type: 2}
  - m_RefCount: 1
    m_Data: {fileID: 11400000, guid: 98150604fbdec9a41b189aafbf3670b5, type: 2}
  - m_RefCount: 1
    m_Data: {fileID: 11400000, guid: 4b7cf8710d2c08240979fddf8d333173, type: 2}
  - m_RefCount: 1
    m_Data: {fileID: 11400000, guid: b926845266c4aea448353bc2b0cf8fd0, type: 2}
  - m_RefCount: 1
    m_Data: {fileID: 11400000, guid: bd23bd1789e963c4f92f6f42cfaea735, type: 2}
  - m_RefCount: 1
    m_Data: {fileID: 11400000, guid: 1c31ba002101ac94c93bd014b8a93517, type: 2}
  - m_RefCount: 1
    m_Data: {fileID: 11400000, guid: bd624a50b9bbea640b376144116016d9, type: 2}
  - m_RefCount: 1
    m_Data: {fileID: 11400000, guid: b350bb4b006d58a42b2f6dbe6928e3e3, type: 2}
  - m_RefCount: 1
    m_Data: {fileID: 11400000, guid: 71557df871bb6774989b2cfff27e24d9, type: 2}
  - m_RefCount: 1
    m_Data: {fileID: 11400000, guid: 5d4c06b4dc4085d4ca09b49eb2f64588, type: 2}
  - m_RefCount: 1
    m_Data: {fileID: 11400000, guid: df1cf3bff4b5c124fa278aeafb49bd9e, type: 2}
  - m_RefCount: 1
    m_Data: {fileID: 11400000, guid: 766461c70aab3cd499e55a8baf6d99e8, type: 2}
  - m_RefCount: 1
    m_Data: {fileID: 11400000, guid: cb710e82c1dd9a948b41ba2a885fd890, type: 2}
  - m_RefCount: 1
    m_Data: {fileID: 11400000, guid: c232de59c546ff14b8657e2f59d80ec1, type: 2}
  - m_RefCount: 1
    m_Data: {fileID: 11400000, guid: 968b8f7a03c18cc4a9f2f608bce7a8b6, type: 2}
  - m_RefCount: 1
    m_Data: {fileID: 11400000, guid: 553235dba2c83d34e88852dfeeb4d8c9, type: 2}
  - m_RefCount: 1
    m_Data: {fileID: 11400000, guid: 37020083d88bb85478ba2d960203a43a, type: 2}
  - m_RefCount: 1
    m_Data: {fileID: 11400000, guid: e90e14015fb28524fb2de5b527c416d8, type: 2}
  - m_RefCount: 1
    m_Data: {fileID: 11400000, guid: 4fa3839d4edd05946aa12fc4896a1f25, type: 2}
  - m_RefCount: 1
    m_Data: {fileID: 11400000, guid: e7e5e20f448e9374bb2cd9d4d4951d39, type: 2}
  - m_RefCount: 1
    m_Data: {fileID: 11400000, guid: 979e25053dd7055479b9482aff437bbd, type: 2}
  - m_RefCount: 1
    m_Data: {fileID: 11400000, guid: 6f295d0534994af4f95600acff879310, type: 2}
  - m_RefCount: 1
    m_Data: {fileID: 11400000, guid: e88fe19ad3f337e4790f18d059248f9f, type: 2}
  - m_RefCount: 1
    m_Data: {fileID: 11400000, guid: 80a573a8267b46d488daa344fdecb80a, type: 2}
  - m_RefCount: 1
    m_Data: {fileID: 11400000, guid: 041ee126ac42e4942a46858595188c08, type: 2}
  - m_RefCount: 1
    m_Data: {fileID: 11400000, guid: ddadd89d065608142b90190f29d36972, type: 2}
  - m_RefCount: 1
    m_Data: {fileID: 11400000, guid: 9819acad516ebf64ab8c4afc222de758, type: 2}
  - m_RefCount: 1
    m_Data: {fileID: 11400000, guid: 26df3358052c8a54ea5d774ec5081c88, type: 2}
  - m_RefCount: 1
    m_Data: {fileID: 11400000, guid: a80d738cb36410b448955506c0aef131, type: 2}
  - m_RefCount: 1
    m_Data: {fileID: 11400000, guid: d8cebdf4ed5df744c80609335f9bb6cb, type: 2}
  - m_RefCount: 1
    m_Data: {fileID: 11400000, guid: caccd9f3bfc93744fb6a31211728c288, type: 2}
  - m_RefCount: 1
    m_Data: {fileID: 11400000, guid: fd09e58193debd54684a178de84aab84, type: 2}
  - m_RefCount: 1
    m_Data: {fileID: 11400000, guid: d91a55ba089980f4abcc1181b15db812, type: 2}
  - m_RefCount: 1
    m_Data: {fileID: 11400000, guid: 0ed8fe007f9cedb4e812259b970cedaf, type: 2}
  - m_RefCount: 1
    m_Data: {fileID: 11400000, guid: e0116f7532444c446acc31c0581293e1, type: 2}
  - m_RefCount: 1
    m_Data: {fileID: 11400000, guid: a5b94c02ce7e8df42828a0e177e64897, type: 2}
  - m_RefCount: 1
    m_Data: {fileID: 11400000, guid: 2e7ca6c392b1ccb47a3b0764b604f2bb, type: 2}
  - m_RefCount: 1
    m_Data: {fileID: 11400000, guid: 258f29f254437d24085e52a64b209bcf, type: 2}
  - m_RefCount: 1
    m_Data: {fileID: 11400000, guid: acb9659e899670b4bbf90730c88cebfe, type: 2}
  - m_RefCount: 1
    m_Data: {fileID: 11400000, guid: 5a5b451e97bd53a459089e42ceecf913, type: 2}
  - m_RefCount: 1
    m_Data: {fileID: 11400000, guid: de9b6c2740dbab54fb6b1a2c3ea8a2c4, type: 2}
  - m_RefCount: 1
    m_Data: {fileID: 11400000, guid: 3443bf191920d334d825d890e61b1347, type: 2}
  - m_RefCount: 1
    m_Data: {fileID: 11400000, guid: 82caacc0adb875644b2e0206d6980a47, type: 2}
  - m_RefCount: 1
    m_Data: {fileID: 11400000, guid: 321d2ca4d9831f149b3aa69a59737f43, type: 2}
  - m_RefCount: 1
    m_Data: {fileID: 11400000, guid: a3a4ebb02501e0b4b95beebf7f09a389, type: 2}
  - m_RefCount: 1
    m_Data: {fileID: 11400000, guid: 9ce451ee07ceecb48b206c4c4e04f1f4, type: 2}
  - m_RefCount: 1
    m_Data: {fileID: 11400000, guid: d4f3ae71388f00f43a23dfbb8ac38c83, type: 2}
  - m_RefCount: 1
    m_Data: {fileID: 11400000, guid: 8bcbb064f6a234943a559f9dad90741d, type: 2}
  - m_RefCount: 1
    m_Data: {fileID: 11400000, guid: 9d81eb088b703a34c94743dbdf104db0, type: 2}
  - m_RefCount: 1
    m_Data: {fileID: 11400000, guid: aa0ba997c5065a441a60c02b9f99af91, type: 2}
  - m_RefCount: 1
    m_Data: {fileID: 11400000, guid: ba04ef32d4b573d4a8ee8ab21c58c8e1, type: 2}
  - m_RefCount: 1
    m_Data: {fileID: 11400000, guid: 11346854d3853494eb4538b3ff55b749, type: 2}
  - m_RefCount: 1
    m_Data: {fileID: 11400000, guid: 090550eb71c7fe6499f0f639290b2882, type: 2}
  - m_RefCount: 1
    m_Data: {fileID: 11400000, guid: aa930bfe9eede9a498741edc7a7e804c, type: 2}
  - m_RefCount: 1
    m_Data: {fileID: 11400000, guid: 9a3ebb5c26f765c4b81b2ae1981b21d3, type: 2}
  - m_RefCount: 1
    m_Data: {fileID: 11400000, guid: 03066864a14766b468c975df2f59857b, type: 2}
  - m_RefCount: 1
    m_Data: {fileID: 11400000, guid: 9eeb370b7fdfe4e4783db892b7284023, type: 2}
  - m_RefCount: 1
    m_Data: {fileID: 11400000, guid: e4e6d3d09c0a90647b5757e100b1eac6, type: 2}
  - m_RefCount: 1
    m_Data: {fileID: 11400000, guid: ed4bf4e7036d1764fb74eacd65dfe019, type: 2}
  - m_RefCount: 1
    m_Data: {fileID: 11400000, guid: 5b4a0a569694ee04799ca2908f029eba, type: 2}
  - m_RefCount: 1
    m_Data: {fileID: 11400000, guid: 9681c0807d637004d86ac8420ee842d4, type: 2}
  - m_RefCount: 1
    m_Data: {fileID: 11400000, guid: ca4ea0dcae12329408b7ed3f4f74c3ca, type: 2}
  - m_RefCount: 1
    m_Data: {fileID: 11400000, guid: 7a251a9cc82f4e143bf2592b638cc249, type: 2}
  - m_RefCount: 1
    m_Data: {fileID: 11400000, guid: 8ad814a356bed274cabafbfe563dd900, type: 2}
  - m_RefCount: 1
    m_Data: {fileID: 11400000, guid: eaa2aae0ab3547e4ebc8e19ea90f392f, type: 2}
  - m_RefCount: 1
    m_Data: {fileID: 11400000, guid: 860db030ae074ec4ca88a601f1a9b7b6, type: 2}
  - m_RefCount: 1
    m_Data: {fileID: 11400000, guid: dc1b315ffe6fd244ea4319fb5d907b65, type: 2}
  - m_RefCount: 1
    m_Data: {fileID: 11400000, guid: 507b56ebb52e38446a472acb6384ee32, type: 2}
  - m_RefCount: 1
    m_Data: {fileID: 11400000, guid: eb7d626ddb96d4c4bb75529c7db23df1, type: 2}
  - m_RefCount: 1
    m_Data: {fileID: 11400000, guid: 3a1f215a37d21434b87404f848cb96a9, type: 2}
  - m_RefCount: 1
    m_Data: {fileID: 11400000, guid: b67d0fff4e09258479c180eaff566027, type: 2}
  - m_RefCount: 1
    m_Data: {fileID: 11400000, guid: 6be18317e8242d64aac364d613335b67, type: 2}
  - m_RefCount: 1
    m_Data: {fileID: 11400000, guid: b7db3e34950d4884a821038af58fc9c6, type: 2}
  - m_RefCount: 1
    m_Data: {fileID: 11400000, guid: f3146852125943140b259fd48dc0d88c, type: 2}
  - m_RefCount: 1
    m_Data: {fileID: 11400000, guid: 0fed4814617ae774c8a56eb5b7791e84, type: 2}
  - m_RefCount: 1
    m_Data: {fileID: 11400000, guid: e51d236c9d4645141bbbc02f65493304, type: 2}
  - m_RefCount: 1
    m_Data: {fileID: 11400000, guid: 2206efcfcaee7a146aa757a76697f131, type: 2}
  - m_RefCount: 1
    m_Data: {fileID: 11400000, guid: 8b94db34b041ed544a95d16065118757, type: 2}
  - m_RefCount: 1
    m_Data: {fileID: 11400000, guid: f1a1aa3942de7a2428e27617c5871ccf, type: 2}
  - m_RefCount: 1
    m_Data: {fileID: 11400000, guid: 69a7eaed43339864fac01d1b98d740c1, type: 2}
  - m_RefCount: 1
    m_Data: {fileID: 11400000, guid: 3abc48ec2a5c81340b1df572b844b4b5, type: 2}
  - m_RefCount: 1
    m_Data: {fileID: 11400000, guid: c6a835d436d38d64dbc6414abe5ac17d, type: 2}
  - m_RefCount: 1
    m_Data: {fileID: 11400000, guid: 1ead1cd030f87de4ab66e713df9b5d47, type: 2}
  - m_RefCount: 1
    m_Data: {fileID: 11400000, guid: deb2ba2fccf8bb94bbb832eb1bff191d, type: 2}
  - m_RefCount: 1
    m_Data: {fileID: 11400000, guid: 1d3a7e6ac13a69e4fbf3ffe868254672, type: 2}
  - m_RefCount: 1
    m_Data: {fileID: 11400000, guid: 3702652d542123c4b819299ff75c1010, type: 2}
  - m_RefCount: 1
    m_Data: {fileID: 11400000, guid: b28be38d7ecec4e41b420915df330994, type: 2}
  - m_RefCount: 1
    m_Data: {fileID: 11400000, guid: 8299276fefd3c3a48bbae2007d53e3b5, type: 2}
  - m_RefCount: 1
    m_Data: {fileID: 11400000, guid: 6cc02830ad445f346be0d8c656e9766b, type: 2}
  - m_RefCount: 1
    m_Data: {fileID: 11400000, guid: 48d3f5a663528d54ebf954cad687e5de, type: 2}
  - m_RefCount: 1
    m_Data: {fileID: 11400000, guid: e0975255bcb5b4342bfad8115791d7d6, type: 2}
  - m_RefCount: 1
    m_Data: {fileID: 11400000, guid: 479443ff75082c443b94470a9c00616d, type: 2}
  - m_RefCount: 1
    m_Data: {fileID: 11400000, guid: 402deb4cb9ab1714a890a4ef89faec26, type: 2}
  - m_RefCount: 1
    m_Data: {fileID: 11400000, guid: bf3dbdf84217fd7409fea5c772bc7b13, type: 2}
  - m_RefCount: 1
    m_Data: {fileID: 11400000, guid: bb4bfa73ec64635488bec21609bff1b1, type: 2}
  - m_RefCount: 1
    m_Data: {fileID: 11400000, guid: 22f112ce145b55e46b539925e21ac898, type: 2}
  - m_RefCount: 1
    m_Data: {fileID: 11400000, guid: 5c4d5e0d505bbc344808d09d27e28202, type: 2}
  - m_RefCount: 1
    m_Data: {fileID: 11400000, guid: 7c87016b22c13fd4681ea7561214d712, type: 2}
  - m_RefCount: 1
    m_Data: {fileID: 11400000, guid: 8cdda59e62d7b9640940230acde538b1, type: 2}
  - m_RefCount: 1
    m_Data: {fileID: 11400000, guid: 2948547edb4237547ab3fa5eed86d08f, type: 2}
  - m_RefCount: 1
    m_Data: {fileID: 11400000, guid: 94ac71e3204397d4e8a0df321b6908b9, type: 2}
  - m_RefCount: 1
    m_Data: {fileID: 11400000, guid: 1aacab0f240f7c049bbce031f2e7aa9d, type: 2}
  - m_RefCount: 1
    m_Data: {fileID: 11400000, guid: 3bb14bbdfb9f403468f0ad2c7059c6d7, type: 2}
  - m_RefCount: 1
    m_Data: {fileID: 11400000, guid: 51e7486300c896f40905e81e7b470e1c, type: 2}
  - m_RefCount: 1
    m_Data: {fileID: 11400000, guid: 5f1679f5f1692904a944a4d8317a3129, type: 2}
  - m_RefCount: 1
    m_Data: {fileID: 11400000, guid: edea13d252fdfcb4bb76fba535efd09f, type: 2}
  - m_RefCount: 1
    m_Data: {fileID: 11400000, guid: 505d043d4491bc74d8d9252c709a6776, type: 2}
  - m_RefCount: 1
    m_Data: {fileID: 11400000, guid: 06d59957c07818349bd0b09967f2300f, type: 2}
  - m_RefCount: 1
    m_Data: {fileID: 11400000, guid: cdcbb52521dc1a94c93594bdbb5dc80e, type: 2}
  - m_RefCount: 1
    m_Data: {fileID: 11400000, guid: 47f1d89a6c1f7294dad97bba9cdb84d9, type: 2}
  - m_RefCount: 1
    m_Data: {fileID: 11400000, guid: 563e5d9f94c05fd469fb82f5e5529e72, type: 2}
  - m_RefCount: 1
    m_Data: {fileID: 11400000, guid: 65bef7b43bb2ce24ba6612ece7a203ea, type: 2}
  - m_RefCount: 1
    m_Data: {fileID: 11400000, guid: 184126c5ab9e4144e91d8c2386fb997e, type: 2}
  - m_RefCount: 1
    m_Data: {fileID: 11400000, guid: 5c595e53f2400fe418e31e284b53be63, type: 2}
  - m_RefCount: 1
    m_Data: {fileID: 11400000, guid: 1025aa1836de19c4b859d0b186de5011, type: 2}
  - m_RefCount: 1
    m_Data: {fileID: 11400000, guid: 6f765d5ccf29a484bafcc401825f63a1, type: 2}
  - m_RefCount: 1
    m_Data: {fileID: 11400000, guid: f884a78c06bc26c44bc8e7feea9c3384, type: 2}
  - m_RefCount: 1
    m_Data: {fileID: 11400000, guid: 2cca445779098ba4d9af98e86f68cf0a, type: 2}
  - m_RefCount: 1
    m_Data: {fileID: 11400000, guid: a820f58358de9184ba1ca5cc99374d61, type: 2}
  - m_RefCount: 1
    m_Data: {fileID: 11400000, guid: 19ef1dfc47d029348bcc95c35692977b, type: 2}
  - m_RefCount: 1
    m_Data: {fileID: 11400000, guid: 6f6af61d7735fbf4791629886413225d, type: 2}
  - m_RefCount: 1
    m_Data: {fileID: 11400000, guid: b67f29a8d4669be4a85ccaea3eed05b8, type: 2}
  - m_RefCount: 1
    m_Data: {fileID: 11400000, guid: 9f204a8c5a9e88d4eb2f8776c1e907e4, type: 2}
  m_TileSpriteArray:
  - m_RefCount: 1
    m_Data: {fileID: 21300000, guid: e3b50334692f8f544b001d8a0536b61a, type: 3}
  - m_RefCount: 1
    m_Data: {fileID: 21300002, guid: e3b50334692f8f544b001d8a0536b61a, type: 3}
  - m_RefCount: 1
    m_Data: {fileID: 21300004, guid: e3b50334692f8f544b001d8a0536b61a, type: 3}
  - m_RefCount: 1
    m_Data: {fileID: 21300006, guid: e3b50334692f8f544b001d8a0536b61a, type: 3}
  - m_RefCount: 1
    m_Data: {fileID: 21300008, guid: e3b50334692f8f544b001d8a0536b61a, type: 3}
  - m_RefCount: 1
    m_Data: {fileID: 21300010, guid: e3b50334692f8f544b001d8a0536b61a, type: 3}
  - m_RefCount: 1
    m_Data: {fileID: 21300012, guid: e3b50334692f8f544b001d8a0536b61a, type: 3}
  - m_RefCount: 1
    m_Data: {fileID: 21300014, guid: e3b50334692f8f544b001d8a0536b61a, type: 3}
  - m_RefCount: 1
    m_Data: {fileID: 21300016, guid: e3b50334692f8f544b001d8a0536b61a, type: 3}
  - m_RefCount: 1
    m_Data: {fileID: 21300018, guid: e3b50334692f8f544b001d8a0536b61a, type: 3}
  - m_RefCount: 1
    m_Data: {fileID: 21300020, guid: e3b50334692f8f544b001d8a0536b61a, type: 3}
  - m_RefCount: 1
    m_Data: {fileID: 21300022, guid: e3b50334692f8f544b001d8a0536b61a, type: 3}
  - m_RefCount: 1
    m_Data: {fileID: 21300024, guid: e3b50334692f8f544b001d8a0536b61a, type: 3}
  - m_RefCount: 1
    m_Data: {fileID: 21300026, guid: e3b50334692f8f544b001d8a0536b61a, type: 3}
  - m_RefCount: 1
    m_Data: {fileID: 21300028, guid: e3b50334692f8f544b001d8a0536b61a, type: 3}
  - m_RefCount: 1
    m_Data: {fileID: 21300030, guid: e3b50334692f8f544b001d8a0536b61a, type: 3}
  - m_RefCount: 1
    m_Data: {fileID: 21300032, guid: e3b50334692f8f544b001d8a0536b61a, type: 3}
  - m_RefCount: 1
    m_Data: {fileID: 21300034, guid: e3b50334692f8f544b001d8a0536b61a, type: 3}
  - m_RefCount: 1
    m_Data: {fileID: 21300036, guid: e3b50334692f8f544b001d8a0536b61a, type: 3}
  - m_RefCount: 1
    m_Data: {fileID: 21300038, guid: e3b50334692f8f544b001d8a0536b61a, type: 3}
  - m_RefCount: 1
    m_Data: {fileID: 21300040, guid: e3b50334692f8f544b001d8a0536b61a, type: 3}
  - m_RefCount: 1
    m_Data: {fileID: 21300042, guid: e3b50334692f8f544b001d8a0536b61a, type: 3}
  - m_RefCount: 1
    m_Data: {fileID: 21300044, guid: e3b50334692f8f544b001d8a0536b61a, type: 3}
  - m_RefCount: 1
    m_Data: {fileID: 21300046, guid: e3b50334692f8f544b001d8a0536b61a, type: 3}
  - m_RefCount: 1
    m_Data: {fileID: 21300048, guid: e3b50334692f8f544b001d8a0536b61a, type: 3}
  - m_RefCount: 1
    m_Data: {fileID: 21300050, guid: e3b50334692f8f544b001d8a0536b61a, type: 3}
  - m_RefCount: 1
    m_Data: {fileID: 21300052, guid: e3b50334692f8f544b001d8a0536b61a, type: 3}
  - m_RefCount: 1
    m_Data: {fileID: 21300054, guid: e3b50334692f8f544b001d8a0536b61a, type: 3}
  - m_RefCount: 1
    m_Data: {fileID: 21300056, guid: e3b50334692f8f544b001d8a0536b61a, type: 3}
  - m_RefCount: 1
    m_Data: {fileID: 21300058, guid: e3b50334692f8f544b001d8a0536b61a, type: 3}
  - m_RefCount: 1
    m_Data: {fileID: 21300060, guid: e3b50334692f8f544b001d8a0536b61a, type: 3}
  - m_RefCount: 1
    m_Data: {fileID: 21300062, guid: e3b50334692f8f544b001d8a0536b61a, type: 3}
  - m_RefCount: 1
    m_Data: {fileID: 21300064, guid: e3b50334692f8f544b001d8a0536b61a, type: 3}
  - m_RefCount: 1
    m_Data: {fileID: 21300066, guid: e3b50334692f8f544b001d8a0536b61a, type: 3}
  - m_RefCount: 1
    m_Data: {fileID: 21300068, guid: e3b50334692f8f544b001d8a0536b61a, type: 3}
  - m_RefCount: 1
    m_Data: {fileID: 21300070, guid: e3b50334692f8f544b001d8a0536b61a, type: 3}
  - m_RefCount: 1
    m_Data: {fileID: 21300072, guid: e3b50334692f8f544b001d8a0536b61a, type: 3}
  - m_RefCount: 1
    m_Data: {fileID: 21300074, guid: e3b50334692f8f544b001d8a0536b61a, type: 3}
  - m_RefCount: 1
    m_Data: {fileID: 21300076, guid: e3b50334692f8f544b001d8a0536b61a, type: 3}
  - m_RefCount: 1
    m_Data: {fileID: 21300078, guid: e3b50334692f8f544b001d8a0536b61a, type: 3}
  - m_RefCount: 1
    m_Data: {fileID: 21300080, guid: e3b50334692f8f544b001d8a0536b61a, type: 3}
  - m_RefCount: 1
    m_Data: {fileID: 21300082, guid: e3b50334692f8f544b001d8a0536b61a, type: 3}
  - m_RefCount: 1
    m_Data: {fileID: 21300084, guid: e3b50334692f8f544b001d8a0536b61a, type: 3}
  - m_RefCount: 1
    m_Data: {fileID: 21300086, guid: e3b50334692f8f544b001d8a0536b61a, type: 3}
  - m_RefCount: 1
    m_Data: {fileID: 21300088, guid: e3b50334692f8f544b001d8a0536b61a, type: 3}
  - m_RefCount: 1
    m_Data: {fileID: 21300090, guid: e3b50334692f8f544b001d8a0536b61a, type: 3}
  - m_RefCount: 1
    m_Data: {fileID: 21300092, guid: e3b50334692f8f544b001d8a0536b61a, type: 3}
  - m_RefCount: 1
    m_Data: {fileID: 21300094, guid: e3b50334692f8f544b001d8a0536b61a, type: 3}
  - m_RefCount: 1
    m_Data: {fileID: 21300096, guid: e3b50334692f8f544b001d8a0536b61a, type: 3}
  - m_RefCount: 1
    m_Data: {fileID: 21300098, guid: e3b50334692f8f544b001d8a0536b61a, type: 3}
  - m_RefCount: 1
    m_Data: {fileID: 21300100, guid: e3b50334692f8f544b001d8a0536b61a, type: 3}
  - m_RefCount: 1
    m_Data: {fileID: 21300102, guid: e3b50334692f8f544b001d8a0536b61a, type: 3}
  - m_RefCount: 1
    m_Data: {fileID: 21300104, guid: e3b50334692f8f544b001d8a0536b61a, type: 3}
  - m_RefCount: 1
    m_Data: {fileID: 21300106, guid: e3b50334692f8f544b001d8a0536b61a, type: 3}
  - m_RefCount: 1
    m_Data: {fileID: 21300108, guid: e3b50334692f8f544b001d8a0536b61a, type: 3}
  - m_RefCount: 1
    m_Data: {fileID: 21300110, guid: e3b50334692f8f544b001d8a0536b61a, type: 3}
  - m_RefCount: 1
    m_Data: {fileID: 21300112, guid: e3b50334692f8f544b001d8a0536b61a, type: 3}
  - m_RefCount: 1
    m_Data: {fileID: 21300114, guid: e3b50334692f8f544b001d8a0536b61a, type: 3}
  - m_RefCount: 1
    m_Data: {fileID: 21300116, guid: e3b50334692f8f544b001d8a0536b61a, type: 3}
  - m_RefCount: 1
    m_Data: {fileID: 21300118, guid: e3b50334692f8f544b001d8a0536b61a, type: 3}
  - m_RefCount: 1
    m_Data: {fileID: 21300120, guid: e3b50334692f8f544b001d8a0536b61a, type: 3}
  - m_RefCount: 1
    m_Data: {fileID: 21300122, guid: e3b50334692f8f544b001d8a0536b61a, type: 3}
  - m_RefCount: 1
    m_Data: {fileID: 21300124, guid: e3b50334692f8f544b001d8a0536b61a, type: 3}
  - m_RefCount: 1
    m_Data: {fileID: 21300126, guid: e3b50334692f8f544b001d8a0536b61a, type: 3}
  - m_RefCount: 1
    m_Data: {fileID: 21300128, guid: e3b50334692f8f544b001d8a0536b61a, type: 3}
  - m_RefCount: 1
    m_Data: {fileID: 21300130, guid: e3b50334692f8f544b001d8a0536b61a, type: 3}
  - m_RefCount: 1
    m_Data: {fileID: 21300132, guid: e3b50334692f8f544b001d8a0536b61a, type: 3}
  - m_RefCount: 1
    m_Data: {fileID: 21300134, guid: e3b50334692f8f544b001d8a0536b61a, type: 3}
  - m_RefCount: 1
    m_Data: {fileID: 21300136, guid: e3b50334692f8f544b001d8a0536b61a, type: 3}
  - m_RefCount: 1
    m_Data: {fileID: 21300138, guid: e3b50334692f8f544b001d8a0536b61a, type: 3}
  - m_RefCount: 1
    m_Data: {fileID: 21300140, guid: e3b50334692f8f544b001d8a0536b61a, type: 3}
  - m_RefCount: 1
    m_Data: {fileID: 21300142, guid: e3b50334692f8f544b001d8a0536b61a, type: 3}
  - m_RefCount: 1
    m_Data: {fileID: 21300144, guid: e3b50334692f8f544b001d8a0536b61a, type: 3}
  - m_RefCount: 1
    m_Data: {fileID: 21300146, guid: e3b50334692f8f544b001d8a0536b61a, type: 3}
  - m_RefCount: 1
    m_Data: {fileID: 21300148, guid: e3b50334692f8f544b001d8a0536b61a, type: 3}
  - m_RefCount: 1
    m_Data: {fileID: 21300150, guid: e3b50334692f8f544b001d8a0536b61a, type: 3}
  - m_RefCount: 1
    m_Data: {fileID: 21300152, guid: e3b50334692f8f544b001d8a0536b61a, type: 3}
  - m_RefCount: 1
    m_Data: {fileID: 21300154, guid: e3b50334692f8f544b001d8a0536b61a, type: 3}
  - m_RefCount: 1
    m_Data: {fileID: 21300156, guid: e3b50334692f8f544b001d8a0536b61a, type: 3}
  - m_RefCount: 1
    m_Data: {fileID: 21300158, guid: e3b50334692f8f544b001d8a0536b61a, type: 3}
  - m_RefCount: 1
    m_Data: {fileID: 21300160, guid: e3b50334692f8f544b001d8a0536b61a, type: 3}
  - m_RefCount: 1
    m_Data: {fileID: 21300162, guid: e3b50334692f8f544b001d8a0536b61a, type: 3}
  - m_RefCount: 1
    m_Data: {fileID: 21300164, guid: e3b50334692f8f544b001d8a0536b61a, type: 3}
  - m_RefCount: 1
    m_Data: {fileID: 21300166, guid: e3b50334692f8f544b001d8a0536b61a, type: 3}
  - m_RefCount: 1
    m_Data: {fileID: 21300168, guid: e3b50334692f8f544b001d8a0536b61a, type: 3}
  - m_RefCount: 1
    m_Data: {fileID: 21300170, guid: e3b50334692f8f544b001d8a0536b61a, type: 3}
  - m_RefCount: 1
    m_Data: {fileID: 21300172, guid: e3b50334692f8f544b001d8a0536b61a, type: 3}
  - m_RefCount: 1
    m_Data: {fileID: 21300174, guid: e3b50334692f8f544b001d8a0536b61a, type: 3}
  - m_RefCount: 1
    m_Data: {fileID: 21300176, guid: e3b50334692f8f544b001d8a0536b61a, type: 3}
  - m_RefCount: 1
    m_Data: {fileID: 21300178, guid: e3b50334692f8f544b001d8a0536b61a, type: 3}
  - m_RefCount: 1
    m_Data: {fileID: 21300180, guid: e3b50334692f8f544b001d8a0536b61a, type: 3}
  - m_RefCount: 1
    m_Data: {fileID: 21300182, guid: e3b50334692f8f544b001d8a0536b61a, type: 3}
  - m_RefCount: 1
    m_Data: {fileID: 21300184, guid: e3b50334692f8f544b001d8a0536b61a, type: 3}
  - m_RefCount: 1
    m_Data: {fileID: 21300186, guid: e3b50334692f8f544b001d8a0536b61a, type: 3}
  - m_RefCount: 1
    m_Data: {fileID: 21300188, guid: e3b50334692f8f544b001d8a0536b61a, type: 3}
  - m_RefCount: 1
    m_Data: {fileID: 21300190, guid: e3b50334692f8f544b001d8a0536b61a, type: 3}
  - m_RefCount: 1
    m_Data: {fileID: 21300192, guid: e3b50334692f8f544b001d8a0536b61a, type: 3}
  - m_RefCount: 1
    m_Data: {fileID: 21300194, guid: e3b50334692f8f544b001d8a0536b61a, type: 3}
  - m_RefCount: 1
    m_Data: {fileID: 21300196, guid: e3b50334692f8f544b001d8a0536b61a, type: 3}
  - m_RefCount: 1
    m_Data: {fileID: 21300198, guid: e3b50334692f8f544b001d8a0536b61a, type: 3}
  - m_RefCount: 1
    m_Data: {fileID: 21300200, guid: e3b50334692f8f544b001d8a0536b61a, type: 3}
  - m_RefCount: 1
    m_Data: {fileID: 21300202, guid: e3b50334692f8f544b001d8a0536b61a, type: 3}
  - m_RefCount: 1
    m_Data: {fileID: 21300204, guid: e3b50334692f8f544b001d8a0536b61a, type: 3}
  - m_RefCount: 1
    m_Data: {fileID: 21300206, guid: e3b50334692f8f544b001d8a0536b61a, type: 3}
  - m_RefCount: 1
    m_Data: {fileID: 21300208, guid: e3b50334692f8f544b001d8a0536b61a, type: 3}
  - m_RefCount: 1
    m_Data: {fileID: 21300210, guid: e3b50334692f8f544b001d8a0536b61a, type: 3}
  - m_RefCount: 1
    m_Data: {fileID: 21300212, guid: e3b50334692f8f544b001d8a0536b61a, type: 3}
  - m_RefCount: 1
    m_Data: {fileID: 21300214, guid: e3b50334692f8f544b001d8a0536b61a, type: 3}
  - m_RefCount: 1
    m_Data: {fileID: 21300216, guid: e3b50334692f8f544b001d8a0536b61a, type: 3}
  - m_RefCount: 1
    m_Data: {fileID: 21300218, guid: e3b50334692f8f544b001d8a0536b61a, type: 3}
  - m_RefCount: 1
    m_Data: {fileID: 21300220, guid: e3b50334692f8f544b001d8a0536b61a, type: 3}
  - m_RefCount: 1
    m_Data: {fileID: 21300222, guid: e3b50334692f8f544b001d8a0536b61a, type: 3}
  - m_RefCount: 1
    m_Data: {fileID: 21300224, guid: e3b50334692f8f544b001d8a0536b61a, type: 3}
  - m_RefCount: 1
    m_Data: {fileID: 21300226, guid: e3b50334692f8f544b001d8a0536b61a, type: 3}
  - m_RefCount: 1
    m_Data: {fileID: 21300228, guid: e3b50334692f8f544b001d8a0536b61a, type: 3}
  - m_RefCount: 1
    m_Data: {fileID: 21300230, guid: e3b50334692f8f544b001d8a0536b61a, type: 3}
  - m_RefCount: 1
    m_Data: {fileID: 21300232, guid: e3b50334692f8f544b001d8a0536b61a, type: 3}
  - m_RefCount: 1
    m_Data: {fileID: 21300234, guid: e3b50334692f8f544b001d8a0536b61a, type: 3}
  - m_RefCount: 1
    m_Data: {fileID: 21300236, guid: e3b50334692f8f544b001d8a0536b61a, type: 3}
  - m_RefCount: 1
    m_Data: {fileID: 21300238, guid: e3b50334692f8f544b001d8a0536b61a, type: 3}
  - m_RefCount: 1
    m_Data: {fileID: 21300240, guid: e3b50334692f8f544b001d8a0536b61a, type: 3}
  - m_RefCount: 1
    m_Data: {fileID: 21300242, guid: e3b50334692f8f544b001d8a0536b61a, type: 3}
  - m_RefCount: 1
    m_Data: {fileID: 21300244, guid: e3b50334692f8f544b001d8a0536b61a, type: 3}
  - m_RefCount: 1
    m_Data: {fileID: 21300246, guid: e3b50334692f8f544b001d8a0536b61a, type: 3}
  - m_RefCount: 1
    m_Data: {fileID: 21300248, guid: e3b50334692f8f544b001d8a0536b61a, type: 3}
  - m_RefCount: 1
    m_Data: {fileID: 21300250, guid: e3b50334692f8f544b001d8a0536b61a, type: 3}
  - m_RefCount: 1
    m_Data: {fileID: 21300252, guid: e3b50334692f8f544b001d8a0536b61a, type: 3}
  - m_RefCount: 1
    m_Data: {fileID: 21300254, guid: e3b50334692f8f544b001d8a0536b61a, type: 3}
  - m_RefCount: 1
    m_Data: {fileID: 21300256, guid: e3b50334692f8f544b001d8a0536b61a, type: 3}
  - m_RefCount: 1
    m_Data: {fileID: 21300258, guid: e3b50334692f8f544b001d8a0536b61a, type: 3}
  - m_RefCount: 1
    m_Data: {fileID: 21300260, guid: e3b50334692f8f544b001d8a0536b61a, type: 3}
  - m_RefCount: 1
    m_Data: {fileID: 21300262, guid: e3b50334692f8f544b001d8a0536b61a, type: 3}
  - m_RefCount: 1
    m_Data: {fileID: 21300264, guid: e3b50334692f8f544b001d8a0536b61a, type: 3}
  - m_RefCount: 1
    m_Data: {fileID: 21300266, guid: e3b50334692f8f544b001d8a0536b61a, type: 3}
  - m_RefCount: 1
    m_Data: {fileID: 21300268, guid: e3b50334692f8f544b001d8a0536b61a, type: 3}
  - m_RefCount: 1
    m_Data: {fileID: 21300270, guid: e3b50334692f8f544b001d8a0536b61a, type: 3}
  - m_RefCount: 1
    m_Data: {fileID: 21300272, guid: e3b50334692f8f544b001d8a0536b61a, type: 3}
  - m_RefCount: 1
    m_Data: {fileID: 21300274, guid: e3b50334692f8f544b001d8a0536b61a, type: 3}
  - m_RefCount: 1
    m_Data: {fileID: 21300276, guid: e3b50334692f8f544b001d8a0536b61a, type: 3}
  - m_RefCount: 1
    m_Data: {fileID: 21300278, guid: e3b50334692f8f544b001d8a0536b61a, type: 3}
  - m_RefCount: 1
    m_Data: {fileID: 21300280, guid: e3b50334692f8f544b001d8a0536b61a, type: 3}
  - m_RefCount: 1
    m_Data: {fileID: 21300282, guid: e3b50334692f8f544b001d8a0536b61a, type: 3}
  - m_RefCount: 1
    m_Data: {fileID: 21300284, guid: e3b50334692f8f544b001d8a0536b61a, type: 3}
  - m_RefCount: 1
    m_Data: {fileID: 21300286, guid: e3b50334692f8f544b001d8a0536b61a, type: 3}
  - m_RefCount: 1
    m_Data: {fileID: 21300288, guid: e3b50334692f8f544b001d8a0536b61a, type: 3}
  - m_RefCount: 1
    m_Data: {fileID: 21300290, guid: e3b50334692f8f544b001d8a0536b61a, type: 3}
  - m_RefCount: 1
    m_Data: {fileID: 21300292, guid: e3b50334692f8f544b001d8a0536b61a, type: 3}
  - m_RefCount: 1
    m_Data: {fileID: 21300294, guid: e3b50334692f8f544b001d8a0536b61a, type: 3}
  - m_RefCount: 1
    m_Data: {fileID: 21300296, guid: e3b50334692f8f544b001d8a0536b61a, type: 3}
  - m_RefCount: 1
    m_Data: {fileID: 21300298, guid: e3b50334692f8f544b001d8a0536b61a, type: 3}
  - m_RefCount: 1
    m_Data: {fileID: 21300300, guid: e3b50334692f8f544b001d8a0536b61a, type: 3}
  - m_RefCount: 1
    m_Data: {fileID: 21300302, guid: e3b50334692f8f544b001d8a0536b61a, type: 3}
  - m_RefCount: 1
    m_Data: {fileID: 21300304, guid: e3b50334692f8f544b001d8a0536b61a, type: 3}
  - m_RefCount: 1
    m_Data: {fileID: 21300306, guid: e3b50334692f8f544b001d8a0536b61a, type: 3}
  - m_RefCount: 1
    m_Data: {fileID: 21300308, guid: e3b50334692f8f544b001d8a0536b61a, type: 3}
  - m_RefCount: 1
    m_Data: {fileID: 21300310, guid: e3b50334692f8f544b001d8a0536b61a, type: 3}
  - m_RefCount: 1
    m_Data: {fileID: 21300312, guid: e3b50334692f8f544b001d8a0536b61a, type: 3}
  - m_RefCount: 1
    m_Data: {fileID: 21300314, guid: e3b50334692f8f544b001d8a0536b61a, type: 3}
  - m_RefCount: 1
    m_Data: {fileID: 21300316, guid: e3b50334692f8f544b001d8a0536b61a, type: 3}
  - m_RefCount: 1
    m_Data: {fileID: 21300318, guid: e3b50334692f8f544b001d8a0536b61a, type: 3}
  - m_RefCount: 1
    m_Data: {fileID: 21300320, guid: e3b50334692f8f544b001d8a0536b61a, type: 3}
  - m_RefCount: 1
    m_Data: {fileID: 21300322, guid: e3b50334692f8f544b001d8a0536b61a, type: 3}
  - m_RefCount: 1
    m_Data: {fileID: 21300324, guid: e3b50334692f8f544b001d8a0536b61a, type: 3}
  - m_RefCount: 1
    m_Data: {fileID: 21300326, guid: e3b50334692f8f544b001d8a0536b61a, type: 3}
  - m_RefCount: 1
    m_Data: {fileID: 21300328, guid: e3b50334692f8f544b001d8a0536b61a, type: 3}
  - m_RefCount: 1
    m_Data: {fileID: 21300330, guid: e3b50334692f8f544b001d8a0536b61a, type: 3}
  - m_RefCount: 1
    m_Data: {fileID: 21300332, guid: e3b50334692f8f544b001d8a0536b61a, type: 3}
  - m_RefCount: 1
    m_Data: {fileID: 21300334, guid: e3b50334692f8f544b001d8a0536b61a, type: 3}
  - m_RefCount: 1
    m_Data: {fileID: 21300336, guid: e3b50334692f8f544b001d8a0536b61a, type: 3}
  - m_RefCount: 1
    m_Data: {fileID: 21300338, guid: e3b50334692f8f544b001d8a0536b61a, type: 3}
  - m_RefCount: 1
    m_Data: {fileID: 21300340, guid: e3b50334692f8f544b001d8a0536b61a, type: 3}
  - m_RefCount: 1
    m_Data: {fileID: 21300342, guid: e3b50334692f8f544b001d8a0536b61a, type: 3}
  - m_RefCount: 1
    m_Data: {fileID: 21300344, guid: e3b50334692f8f544b001d8a0536b61a, type: 3}
  - m_RefCount: 1
    m_Data: {fileID: 21300346, guid: e3b50334692f8f544b001d8a0536b61a, type: 3}
  - m_RefCount: 1
    m_Data: {fileID: 21300348, guid: e3b50334692f8f544b001d8a0536b61a, type: 3}
  - m_RefCount: 1
    m_Data: {fileID: 21300350, guid: e3b50334692f8f544b001d8a0536b61a, type: 3}
  - m_RefCount: 1
    m_Data: {fileID: 21300352, guid: e3b50334692f8f544b001d8a0536b61a, type: 3}
  m_TileMatrixArray:
  - m_RefCount: 177
    m_Data:
      e00: 1
      e01: 0
      e02: 0
      e03: 0
      e10: 0
      e11: 1
      e12: 0
      e13: 0
      e20: 0
      e21: 0
      e22: 1
      e23: 0
      e30: 0
      e31: 0
      e32: 0
      e33: 1
  m_TileColorArray:
  - m_RefCount: 177
    m_Data: {r: 1, g: 1, b: 1, a: 1}
  m_TileObjectToInstantiateArray: []
  m_AnimationFrameRate: 1
  m_Color: {r: 1, g: 1, b: 1, a: 1}
  m_Origin: {x: 0, y: -14, z: 0}
  m_Size: {x: 19, y: 14, z: 1}
  m_TileAnchor: {x: 0.5, y: 0.5, z: 0}
  m_TileOrientation: 0
  m_TileOrientationMatrix:
    e00: 1
    e01: 0
    e02: 0
    e03: 0
    e10: 0
    e11: 1
    e12: 0
    e13: 0
    e20: 0
    e21: 0
    e22: 1
    e23: 0
    e30: 0
    e31: 0
    e32: 0
    e33: 1
--- !u!483693784 &4664832824601840869
TilemapRenderer:
  m_ObjectHideFlags: 0
  m_CorrespondingSourceObject: {fileID: 0}
  m_PrefabInstance: {fileID: 0}
  m_PrefabAsset: {fileID: 0}
  m_GameObject: {fileID: 2783301491423849722}
  m_Enabled: 1
  m_CastShadows: 0
  m_ReceiveShadows: 0
  m_DynamicOccludee: 0
  m_MotionVectors: 1
  m_LightProbeUsage: 0
  m_ReflectionProbeUsage: 0
  m_RayTracingMode: 0
  m_RayTraceProcedural: 0
  m_RenderingLayerMask: 1
  m_RendererPriority: 0
  m_Materials:
  - {fileID: 10754, guid: 0000000000000000f000000000000000, type: 0}
  m_StaticBatchInfo:
    firstSubMesh: 0
    subMeshCount: 0
  m_StaticBatchRoot: {fileID: 0}
  m_ProbeAnchor: {fileID: 0}
  m_LightProbeVolumeOverride: {fileID: 0}
  m_ScaleInLightmap: 1
  m_ReceiveGI: 1
  m_PreserveUVs: 0
  m_IgnoreNormalsForChartDetection: 0
  m_ImportantGI: 0
  m_StitchLightmapSeams: 1
  m_SelectedEditorRenderState: 0
  m_MinimumChartSize: 4
  m_AutoUVMaxDistance: 0.5
  m_AutoUVMaxAngle: 89
  m_LightmapParameters: {fileID: 0}
  m_SortingLayerID: 0
  m_SortingLayer: 0
  m_SortingOrder: 0
  m_ChunkSize: {x: 32, y: 32, z: 32}
  m_ChunkCullingBounds: {x: 0, y: 0, z: 0}
  m_MaxChunkCount: 16
  m_MaxFrameAge: 16
  m_SortOrder: 0
  m_Mode: 0
  m_DetectChunkCullingBounds: 0
  m_MaskInteraction: 0
--- !u!1 &3133808463763101254
GameObject:
  m_ObjectHideFlags: 0
  m_CorrespondingSourceObject: {fileID: 0}
  m_PrefabInstance: {fileID: 0}
  m_PrefabAsset: {fileID: 0}
  serializedVersion: 6
  m_Component:
  - component: {fileID: 5385230471054113449}
  - component: {fileID: 811036125178298951}
  m_Layer: 31
  m_Name: Ground
  m_TagString: Untagged
  m_Icon: {fileID: 0}
  m_NavMeshLayer: 0
  m_StaticEditorFlags: 0
  m_IsActive: 1
--- !u!4 &5385230471054113449
Transform:
  m_ObjectHideFlags: 0
  m_CorrespondingSourceObject: {fileID: 0}
  m_PrefabInstance: {fileID: 0}
  m_PrefabAsset: {fileID: 0}
  m_GameObject: {fileID: 3133808463763101254}
  m_LocalRotation: {x: 0, y: 0, z: 0, w: 1}
  m_LocalPosition: {x: 0, y: 0, z: 0}
  m_LocalScale: {x: 1, y: 1, z: 1}
  m_Children:
  - {fileID: 4281634105527834520}
  m_Father: {fileID: 0}
  m_RootOrder: 0
  m_LocalEulerAnglesHint: {x: 0, y: 0, z: 0}
--- !u!156049354 &811036125178298951
Grid:
  m_ObjectHideFlags: 0
  m_CorrespondingSourceObject: {fileID: 0}
  m_PrefabInstance: {fileID: 0}
  m_PrefabAsset: {fileID: 0}
  m_GameObject: {fileID: 3133808463763101254}
  m_Enabled: 1
  m_CellSize: {x: 1, y: 1, z: 0}
  m_CellGap: {x: 0, y: 0, z: 0}
  m_CellLayout: 0
  m_CellSwizzle: 0
--- !u!114 &4392069829428725344
MonoBehaviour:
  m_ObjectHideFlags: 0
  m_CorrespondingSourceObject: {fileID: 0}
  m_PrefabInstance: {fileID: 0}
  m_PrefabAsset: {fileID: 0}
  m_GameObject: {fileID: 0}
  m_Enabled: 1
  m_EditorHideFlags: 0
  m_Script: {fileID: 12395, guid: 0000000000000000e000000000000000, type: 0}
  m_Name: Palette Settings
  m_EditorClassIdentifier: 
  cellSizing: 0
  m_TransparencySortMode: 0
  m_TransparencySortAxis: {x: 0, y: 0, z: 1}
